# ca-HepPh 11204 117649 25 20
0 16
1 21
2 0
3 5
4 21
5 22
6 20
7 12
8 6
9 21
10 11
11 9
12 21
13 14
14 6
15 14
16 22
17 15
18 17
19 23
20 22
21 19
22 24
23 13
24 12
25 1
26 10
27 20
28 7
29 12
30 4
31 1
32 19
33 24
34 16
35 23
36 10
37 24
38 5
39 1
40 7
41 3
42 13
43 0
44 18
45 8
46 11
47 15
48 6
49 5
50 1
51 16
52 15
53 21
54 15
55 14
56 10
57 16
58 9
59 17
60 5
61 10
62 19
63 7
64 18
65 15
66 4
67 15
68 13
69 21
70 23
71 8
72 2
73 20
74 3
75 24
76 9
77 20
78 14
79 11
80 12
81 4
82 5
83 3
84 23
85 13
86 19
87 7
88 18
89 3
90 9
91 8
92 16
93 6
94 12
95 5
96 0
97 22
98 0
99 18
100 3
101 15
102 7
103 11
104 2
105 15
106 8
107 4
108 3
109 20
110 3
111 22
112 15
113 4
114 22
115 9
116 8
117 7
118 18
119 24
120 15
121 12
122 17
123 2
124 24
125 5
126 24
127 13
128 4
129 5
130 9
131 16
132 14
133 3
134 8
135 5
136 22
137 18
138 23
139 19
140 11
141 20
142 5
143 6
144 9
145 6
146 12
147 17
148 9
149 12
150 4
151 6
152 4
153 4
154 10
155 24
156 4
157 13
158 23
159 16
160 21
161 9
162 14
163 6
164 5
165 23
166 21
167 14
168 12
169 0
170 9
171 12
172 12
173 16
174 17
175 16
176 23
177 16
178 20
179 21
180 10
181 20
182 7
183 19
184 17
185 20
186 15
187 11
188 10
189 12
190 9
191 18
192 14
193 15
194 5
195 17
196 3
197 9
198 0
199 23
200 14
201 21
202 23
203 1
204 3
205 24
206 12
207 16
208 11
209 23
210 17
211 17
212 16
213 13
214 4
215 24
216 18
217 6
218 15
219 22
220 20
221 16
222 19
223 20
224 6
225 18
226 13
227 22
228 12
229 16
230 5
231 2
232 4
233 0
234 8
235 23
236 19
237 23
238 18
239 17
240 12
241 24
242 23
243 1
244 13
245 19
246 18
247 6
248 8
249 6
250 12
251 9
252 19
253 9
254 24
255 18
256 8
257 3
258 0
259 0
260 1
261 17
262 19
263 13
264 3
265 17
266 14
267 21
268 21
269 21
270 19
271 8
272 21
273 17
274 15
275 10
276 9
277 10
278 9
279 4
280 23
281 18
282 6
283 6
284 23
285 2
286 7
287 10
288 9
289 6
290 17
291 23
292 22
293 17
294 22
295 7
296 23
297 8
298 11
299 23
300 19
301 17
302 5
303 4
304 6
305 13
306 21
307 24
308 3
309 21
310 8
311 5
312 8
313 18
314 23
315 14
316 1
317 4
318 1
319 16
320 24
321 2
322 16
323 0
324 23
325 17
326 16
327 12
328 1
329 12
330 22
331 3
332 0
333 3
334 2
335 6
336 8
337 13
338 2
339 11
340 22
341 4
342 4
343 5
344 2
345 0
346 13
347 12
348 20
349 18
350 12
351 4
352 1
353 1
354 21
355 17
356 1
357 12
358 8
359 5
360 23
361 1
362 24
363 16
364 14
365 21
366 21
367 8
368 8
369 11
370 5
371 9
372 23
373 23
374 16
375 6
376 15
377 18
378 20
379 20
380 10
381 14
382 10
383 1
384 21
385 13
386 12
387 14
388 22
389 14
390 15
391 17
392 23
393 3
394 1
395 17
396 17
397 16
398 14
399 15
400 16
401 2
402 3
403 24
404 3
405 12
406 18
407 21
408 4
409 6
410 6
411 4
412 24
413 2
414 0
415 6
416 5
417 22
418 9
419 22
420 19
421 15
422 14
423 16
424 9
425 2
426 10
427 2
428 5
429 13
430 7
431 21
432 17
433 15
434 7
435 1
436 7
437 21
438 22
439 23
440 23
441 24
442 7
443 0
444 14
445 13
446 14
447 10
448 16
449 10
450 4
451 6
452 0
453 1
454 7
455 12
456 4
457 7
458 0
459 21
460 5
461 11
462 4
463 3
464 20
465 24
466 10
467 21
468 11
469 17
470 10
471 5
472 14
473 11
474 21
475 5
476 15
477 11
478 23
479 5
480 15
481 22
482 21
483 22
484 4
485 21
486 6
487 5
488 21
489 4
490 6
491 12
492 11
493 24
494 6
495 17
496 10
497 14
498 8
499 7
500 7
501 18
502 11
503 20
504 2
505 10
506 13
507 19
508 5
509 15
510 24
511 19
512 17
513 1
514 2
515 22
516 6
517 3
518 9
519 13
520 2
521 17
522 5
523 22
524 14
525 23
526 18
527 11
528 20
529 1
530 14
531 6
532 13
533 8
534 17
535 6
536 23
537 22
538 8
539 21
540 20
541 5
542 9
543 15
544 2
545 18
546 0
547 20
548 11
549 22
550 14
551 6
552 17
553 14
554 11
555 2
556 17
557 14
558 23
559 5
560 5
561 3
562 19
563 7
564 17
565 7
566 23
567 9
568 4
569 8
570 22
571 2
572 12
573 17
574 2
575 21
576 2
577 11
578 1
579 13
580 5
581 2
582 19
583 1
584 20
585 24
586 17
587 17
588 5
589 20
590 3
591 7
592 24
593 0
594 11
595 23
596 11
597 10
598 7
599 21
600 10
601 5
602 24
603 6
604 24
605 12
606 14
607 13
608 15
609 8
610 16
611 13
612 10
613 0
614 15
615 3
616 1
617 6
618 22
619 2
620 14
621 6
622 15
623 5
624 6
625 18
626 15
627 19
628 15
629 1
630 24
631 4
632 15
633 15
634 7
635 8
636 21
637 18
638 10
639 5
640 20
641 6
642 9
643 23
644 13
645 20
646 8
647 1
648 19
649 11
650 9
651 9
652 21
653 11
654 12
655 2
656 22
657 24
658 6
659 24
660 13
661 8
662 8
663 8
664 10
665 17
666 2
667 14
668 9
669 12
670 9
671 6
672 0
673 9
674 24
675 16
676 21
677 0
678 24
679 1
680 6
681 8
682 12
683 16
684 17
685 11
686 18
687 11
688 10
689 10
690 11
691 23
692 22
693 24
694 11
695 13
696 14
697 24
698 23
699 6
700 21
701 10
702 22
703 0
704 17
705 6
706 7
707 11
708 5
709 18
710 17
711 20
712 10
713 14
714 0
715 18
716 17
717 17
718 7
719 16
720 4
721 14
722 5
723 2
724 13
725 17
726 15
727 0
728 1
729 19
730 6
731 22
732 19
733 11
734 23
735 18
736 23
737 23
738 9
739 24
740 18
741 21
742 1
743 20
744 24
745 14
746 14
747 14
748 17
749 22
750 5
751 21
752 23
753 3
754 24
755 24
756 2
757 18
758 12
759 13
760 21
761 19
762 9
763 23
764 19
765 9
766 6
767 23
768 8
769 12
770 19
771 0
772 7
773 22
774 0
775 2
776 2
777 3
778 9
779 9
780 7
781 6
782 6
783 8
784 5
785 20
786 18
787 14
788 23
789 20
790 24
791 6
792 0
793 1
794 14
795 4
796 2
797 14
798 19
799 8
800 21
801 19
802 12
803 9
804 0
805 17
806 21
807 11
808 18
809 4
810 9
811 24
812 3
813 1
814 0
815 8
816 12
817 12
818 22
819 10
820 4
821 6
822 11
823 13
824 13
825 17
826 5
827 19
828 2
829 24
830 4
831 19
832 13
833 24
834 21
835 10
836 3
837 9
838 2
839 3
840 10
841 9
842 4
843 8
844 17
845 12
846 11
847 14
848 1
849 17
850 6
851 15
852 9
853 2
854 2
855 2
856 22
857 3
858 18
859 10
860 17
861 19
862 7
863 10
864 10
865 23
866 16
867 12
868 18
869 21
870 24
871 16
872 13
873 3
874 1
875 10
876 2
877 2
878 21
879 19
880 3
881 22
882 7
883 1
884 6
885 15
886 11
887 6
888 22
889 22
890 2
891 1
892 0
893 12
894 14
895 10
896 5
897 19
898 11
899 17
900 8
901 1
902 14
903 19
904 11
905 17
906 7
907 17
908 4
909 5
910 20
911 15
912 9
913 14
914 6
915 18
916 2
917 10
918 10
919 18
920 23
921 2
922 23
923 19
924 17
925 12
926 22
927 1
928 5
929 0
930 17
931 2
932 12
933 10
934 24
935 8
936 11
937 22
938 13
939 12
940 14
941 12
942 20
943 6
944 19
945 10
946 6
947 12
948 14
949 24
950 11
951 18
952 10
953 11
954 21
955 17
956 16
957 18
958 12
959 20
960 0
961 3
962 11
963 4
964 21
965 11
966 22
967 21
968 12
969 14
970 24
971 21
972 14
973 4
974 0
975 21
976 0
977 10
978 5
979 0
980 2
981 4
982 21
983 1
984 24
985 2
986 9
987 8
988 18
989 0
990 0
991 11
992 2
993 8
994 19
995 13
996 0
997 16
998 19
999 10
1000 20
1001 12
1002 20
1003 21
1004 15
1005 24
1006 5
1007 0
1008 17
1009 17
1010 14
1011 24
1012 12
1013 21
1014 8
1015 22
1016 13
1017 11
1018 7
1019 10
1020 9
1021 11
1022 0
1023 8
1024 13
1025 0
1026 18
1027 2
1028 3
1029 18
1030 20
1031 13
1032 2
1033 11
1034 22
1035 13
1036 1
1037 11
1038 12
1039 21
1040 0
1041 17
1042 8
1043 17
1044 10
1045 13
1046 21
1047 12
1048 24
1049 21
1050 16
1051 3
1052 12
1053 13
1054 1
1055 8
1056 14
1057 7
1058 21
1059 9
1060 1
1061 13
1062 2
1063 10
1064 6
1065 16
1066 17
1067 2
1068 14
1069 5
1070 2
1071 3
1072 5
1073 23
1074 3
1075 1
1076 0
1077 6
1078 11
1079 10
1080 15
1081 8
1082 2
1083 23
1084 3
1085 7
1086 2
1087 5
1088 22
1089 22
1090 24
1091 17
1092 2
1093 7
1094 3
1095 1
1096 4
1097 17
1098 11
1099 23
1100 15
1101 8
1102 8
1103 16
1104 2
1105 20
1106 11
1107 9
1108 17
1109 7
1110 2
1111 17
1112 14
1113 6
1114 16
1115 16
1116 5
1117 14
1118 12
1119 15
1120 6
1121 7
1122 7
1123 0
1124 18
1125 11
1126 20
1127 6
1128 4
1129 2
1130 19
1131 2
1132 7
1133 22
1134 16
1135 16
1136 24
1137 15
1138 20
1139 3
1140 23
1141 18
1142 6
1143 12
1144 21
1145 18
1146 20
1147 12
1148 0
1149 22
1150 13
1151 6
1152 4
1153 19
1154 17
1155 12
1156 24
1157 6
1158 14
1159 16
1160 2
1161 16
1162 19
1163 4
1164 18
1165 9
1166 4
1167 15
1168 11
1169 1
1170 0
1171 12
1172 11
1173 19
1174 1
1175 15
1176 19
1177 14
1178 22
1179 12
1180 7
1181 17
1182 4
1183 21
1184 18
1185 3
1186 1
1187 0
1188 15
1189 10
1190 9
1191 10
1192 7
1193 13
1194 11
1195 2
1196 17
1197 16
1198 11
1199 11
1200 3
1201 24
1202 12
1203 0
1204 12
1205 16
1206 17
1207 17
1208 22
1209 11
1210 14
1211 2
1212 15
1213 13
1214 15
1215 8
1216 0
1217 15
1218 17
1219 3
1220 13
1221 13
1222 2
1223 5
1224 0
1225 23
1226 2
1227 18
1228 1
1229 21
1230 23
1231 6
1232 22
1233 18
1234 11
1235 3
1236 1
1237 1
1238 18
1239 19
1240 19
1241 4
1242 3
1243 7
1244 3
1245 16
1246 20
1247 13
1248 2
1249 18
1250 15
1251 14
1252 19
1253 6
1254 11
1255 5
1256 20
1257 14
1258 17
1259 19
1260 23
1261 19
1262 24
1263 19
1264 22
1265 3
1266 16
1267 13
1268 11
1269 13
1270 9
1271 10
1272 24
1273 6
1274 17
1275 14
1276 19
1277 9
1278 21
1279 2
1280 0
1281 1
1282 14
1283 22
1284 4
1285 23
1286 11
1287 24
1288 9
1289 16
1290 6
1291 7
1292 10
1293 11
1294 8
1295 2
1296 7
1297 10
1298 5
1299 13
1300 17
1301 15
1302 0
1303 13
1304 24
1305 2
1306 17
1307 21
1308 3
1309 0
1310 21
1311 7
1312 15
1313 20
1314 24
1315 16
1316 10
1317 18
1318 17
1319 5
1320 9
1321 2
1322 19
1323 0
1324 13
1325 15
1326 11
1327 2
1328 14
1329 23
1330 4
1331 15
1332 18
1333 5
1334 2
1335 24
1336 17
1337 8
1338 16
1339 16
1340 2
1341 24
1342 2
1343 3
1344 2
1345 21
1346 14
1347 22
1348 7
1349 20
1350 9
1351 10
1352 17
1353 14
1354 23
1355 2
1356 16
1357 1
1358 12
1359 4
1360 1
1361 8
1362 18
1363 17
1364 6
1365 18
1366 20
1367 8
1368 24
1369 24
1370 18
1371 20
1372 17
1373 22
1374 24
1375 18
1376 9
1377 7
1378 17
1379 23
1380 8
1381 24
1382 14
1383 19
1384 13
1385 3
1386 3
1387 12
1388 19
1389 17
1390 1
1391 8
1392 5
1393 9
1394 10
1395 3
1396 14
1397 9
1398 18
1399 4
1400 16
1401 0
1402 16
1403 10
1404 0
1405 13
1406 19
1407 4
1408 18
1409 6
1410 7
1411 6
1412 21
1413 16
1414 1
1415 22
1416 23
1417 22
1418 22
1419 10
1420 22
1421 13
1422 2
1423 3
1424 18
1425 21
1426 17
1427 16
1428 18
1429 14
1430 22
1431 10
1432 2
1433 17
1434 3
1435 8
1436 20
1437 3
1438 18
1439 21
1440 18
1441 2
1442 8
1443 10
1444 21
1445 16
1446 17
1447 10
1448 24
1449 15
1450 3
1451 11
1452 11
1453 14
1454 8
1455 14
1456 14
1457 1
1458 12
1459 8
1460 5
1461 0
1462 11
1463 12
1464 8
1465 18
1466 20
1467 1
1468 13
1469 0
1470 12
1471 20
1472 17
1473 24
1474 14
1475 4
1476 0
1477 12
1478 22
1479 15
1480 5
1481 22
1482 11
1483 3
1484 13
1485 7
1486 1
1487 20
1488 12
1489 10
1490 21
1491 16
1492 21
1493 9
1494 23
1495 6
1496 4
1497 17
1498 8
1499 15
1500 18
1501 7
1502 22
1503 9
1504 1
1505 17
1506 16
1507 8
1508 22
1509 9
1510 20
1511 11
1512 10
1513 8
1514 14
1515 1
1516 10
1517 16
1518 15
1519 18
1520 19
1521 15
1522 20
1523 19
1524 4
1525 7
1526 14
1527 21
1528 21
1529 19
1530 2
1531 19
1532 18
1533 22
1534 11
1535 8
1536 15
1537 9
1538 10
1539 9
1540 10
1541 1
1542 18
1543 18
1544 18
1545 18
1546 21
1547 0
1548 18
1549 23
1550 24
1551 6
1552 4
1553 0
1554 9
1555 19
1556 5
1557 13
1558 9
1559 24
1560 17
1561 0
1562 15
1563 17
1564 6
1565 6
1566 7
1567 5
1568 5
1569 19
1570 0
1571 10
1572 11
1573 2
1574 20
1575 10
1576 19
1577 17
1578 1
1579 12
1580 13
1581 5
1582 0
1583 19
1584 1
1585 9
1586 20
1587 9
1588 7
1589 8
1590 2
1591 5
1592 6
1593 20
1594 16
1595 24
1596 5
1597 15
1598 5
1599 22
1600 3
1601 15
1602 9
1603 17
1604 5
1605 15
1606 10
1607 2
1608 17
1609 1
1610 2
1611 6
1612 7
1613 1
1614 6
1615 10
1616 19
1617 19
1618 0
1619 6
1620 4
1621 6
1622 5
1623 22
1624 7
1625 21
1626 20
1627 9
1628 8
1629 0
1630 5
1631 18
1632 23
1633 12
1634 22
1635 15
1636 20
1637 17
1638 2
1639 8
1640 8
1641 14
1642 23
1643 12
1644 24
1645 23
1646 17
1647 6
1648 11
1649 3
1650 6
1651 23
1652 8
1653 19
1654 0
1655 14
1656 19
1657 15
1658 0
1659 19
1660 19
1661 5
1662 0
1663 5
1664 24
1665 6
1666 0
1667 7
1668 4
1669 10
1670 21
1671 7
1672 18
1673 18
1674 1
1675 13
1676 4
1677 5
1678 24
1679 6
1680 9
1681 16
1682 4
1683 2
1684 18
1685 16
1686 14
1687 18
1688 10
1689 2
1690 10
1691 16
1692 4
1693 17
1694 18
1695 2
1696 11
1697 14
1698 1
1699 17
1700 0
1701 10
1702 18
1703 22
1704 2
1705 21
1706 6
1707 1
1708 10
1709 3
1710 10
1711 21
1712 18
1713 7
1714 3
1715 2
1716 20
1717 9
1718 13
1719 4
1720 15
1721 9
1722 8
1723 21
1724 7
1725 5
1726 0
1727 0
1728 14
1729 18
1730 15
1731 5
1732 22
1733 15
1734 13
1735 13
1736 22
1737 17
1738 12
1739 22
1740 18
1741 15
1742 11
1743 11
1744 6
1745 9
1746 10
1747 6
1748 6
1749 0
1750 14
1751 5
1752 24
1753 22
1754 9
1755 6
1756 2
1757 10
1758 10
1759 21
1760 18
1761 21
1762 14
1763 24
1764 7
1765 17
1766 12
1767 15
1768 17
1769 20
1770 11
1771 12
1772 21
1773 6
1774 6
1775 21
1776 22
1777 24
1778 19
1779 22
1780 13
1781 0
1782 13
1783 0
1784 3
1785 2
1786 16
1787 20
1788 24
1789 10
1790 14
1791 2
1792 19
1793 5
1794 18
1795 5
1796 11
1797 23
1798 24
1799 2
1800 18
1801 2
1802 24
1803 2
1804 5
1805 19
1806 16
1807 19
1808 7
1809 14
1810 6
1811 10
1812 19
1813 16
1814 10
1815 0
1816 4
1817 22
1818 24
1819 12
1820 22
1821 15
1822 17
1823 13
1824 8
1825 9
1826 8
1827 12
1828 4
1829 13
1830 0
1831 18
1832 9
1833 8
1834 3
1835 14
1836 22
1837 17
1838 12
1839 20
1840 6
1841 15
1842 16
1843 5
1844 19
1845 9
1846 10
1847 15
1848 21
1849 11
1850 23
1851 24
1852 19
1853 15
1854 16
1855 23
1856 24
1857 17
1858 24
1859 1
1860 20
1861 15
1862 4
1863 13
1864 0
1865 14
1866 13
1867 18
1868 1
1869 12
1870 18
1871 2
1872 8
1873 12
1874 1
1875 18
1876 3
1877 19
1878 14
1879 16
1880 19
1881 21
1882 10
1883 15
1884 17
1885 1
1886 13
1887 8
1888 20
1889 6
1890 8
1891 24
1892 21
1893 24
1894 23
1895 19
1896 7
1897 24
1898 21
1899 8
1900 17
1901 17
1902 11
1903 7
1904 6
1905 13
1906 5
1907 14
1908 22
1909 12
1910 14
1911 7
1912 19
1913 18
1914 9
1915 8
1916 1
1917 12
1918 5
1919 19
1920 2
1921 7
1922 14
1923 3
1924 0
1925 20
1926 4
1927 15
1928 13
1929 6
1930 6
1931 23
1932 21
1933 0
1934 19
1935 2
1936 23
1937 21
1938 3
1939 22
1940 21
1941 14
1942 11
1943 0
1944 18
1945 14
1946 4
1947 4
1948 24
1949 11
1950 11
1951 8
1952 15
1953 0
1954 22
1955 11
1956 7
1957 9
1958 19
1959 19
1960 4
1961 12
1962 19
1963 15
1964 1
1965 19
1966 15
1967 8
1968 1
1969 20
1970 10
1971 7
1972 18
1973 16
1974 15
1975 20
1976 2
1977 6
1978 16
1979 19
1980 14
1981 11
1982 17
1983 8
1984 8
1985 14
1986 21
1987 14
1988 13
1989 3
1990 4
1991 13
1992 14
1993 11
1994 4
1995 19
1996 10
1997 8
1998 6
1999 15
2000 17
2001 10
2002 23
2003 14
2004 2
2005 2
2006 17
2007 5
2008 7
2009 9
2010 0
2011 15
2012 21
2013 21
2014 9
2015 14
2016 0
2017 18
2018 10
2019 19
2020 11
2021 20
2022 7
2023 13
2024 24
2025 0
2026 3
2027 5
2028 2
2029 14
2030 21
2031 21
2032 21
2033 6
2034 22
2035 24
2036 21
2037 12
2038 11
2039 24
2040 2
2041 21
2042 22
2043 13
2044 1
2045 13
2046 9
2047 11
2048 15
2049 24
2050 14
2051 0
2052 13
2053 17
2054 4
2055 23
2056 20
2057 9
2058 10
2059 17
2060 18
2061 21
2062 10
2063 22
2064 2
2065 24
2066 22
2067 12
2068 1
2069 18
2070 16
2071 0
2072 4
2073 18
2074 2
2075 2
2076 13
2077 24
2078 6
2079 16
2080 20
2081 24
2082 19
2083 16
2084 22
2085 12
2086 21
2087 23
2088 13
2089 2
2090 19
2091 4
2092 5
2093 4
2094 1
2095 9
2096 13
2097 14
2098 4
2099 4
2100 19
2101 4
2102 24
2103 4
2104 16
2105 22
2106 21
2107 24
2108 0
2109 11
2110 17
2111 3
2112 23
2113 17
2114 21
2115 18
2116 11
2117 17
2118 11
2119 12
2120 0
2121 15
2122 6
2123 4
2124 2
2125 23
2126 13
2127 5
2128 17
2129 23
2130 12
2131 11
2132 2
2133 18
2134 8
2135 19
2136 23
2137 0
2138 0
2139 12
2140 19
2141 3
2142 20
2143 22
2144 19
2145 9
2146 21
2147 24
2148 20
2149 1
2150 6
2151 22
2152 23
2153 18
2154 20
2155 14
2156 11
2157 5
2158 16
2159 24
2160 17
2161 15
2162 19
2163 19
2164 7
2165 12
2166 16
2167 17
2168 20
2169 5
2170 22
2171 3
2172 18
2173 7
2174 5
2175 20
2176 22
2177 8
2178 23
2179 0
2180 19
2181 16
2182 15
2183 18
2184 7
2185 0
2186 6
2187 17
2188 0
2189 9
2190 20
2191 5
2192 16
2193 23
2194 12
2195 15
2196 18
2197 13
2198 7
2199 23
2200 8
2201 0
2202 17
2203 19
2204 17
2205 6
2206 14
2207 24
2208 12
2209 22
2210 16
2211 19
2212 17
2213 9
2214 4
2215 11
2216 3
2217 18
2218 5
2219 5
2220 3
2221 3
2222 5
2223 0
2224 18
2225 9
2226 4
2227 20
2228 16
2229 9
2230 0
2231 5
2232 7
2233 16
2234 6
2235 23
2236 9
2237 0
2238 13
2239 24
2240 13
2241 4
2242 3
2243 6
2244 10
2245 19
2246 9
2247 15
2248 12
2249 13
2250 20
2251 17
2252 17
2253 1
2254 11
2255 18
2256 2
2257 3
2258 3
2259 15
2260 3
2261 1
2262 13
2263 21
2264 12
2265 7
2266 7
2267 3
2268 6
2269 1
2270 23
2271 8
2272 10
2273 24
2274 6
2275 3
2276 6
2277 15
2278 23
2279 12
2280 5
2281 24
2282 9
2283 5
2284 24
2285 18
2286 8
2287 8
2288 9
2289 20
2290 5
2291 0
2292 9
2293 20
2294 1
2295 15
2296 22
2297 10
2298 0
2299 20
2300 8
2301 6
2302 14
2303 15
2304 2
2305 16
2306 7
2307 19
2308 5
2309 12
2310 18
2311 8
2312 23
2313 18
2314 6
2315 24
2316 12
2317 11
2318 13
2319 7
2320 23
2321 15
2322 24
2323 10
2324 10
2325 16
2326 9
2327 12
2328 20
2329 18
2330 12
2331 16
2332 1
2333 22
2334 2
2335 15
2336 0
2337 22
2338 6
2339 10
2340 24
2341 8
2342 15
2343 10
2344 19
2345 18
2346 16
2347 14
2348 14
2349 3
2350 24
2351 2
2352 24
2353 15
2354 19
2355 3
2356 10
2357 10
2358 1
2359 11
2360 14
2361 20
2362 3
2363 12
2364 3
2365 0
2366 13
2367 21
2368 0
2369 17
2370 24
2371 1
2372 7
2373 24
2374 21
2375 2
2376 17
2377 4
2378 9
2379 14
2380 20
2381 18
2382 3
2383 8
2384 19
2385 22
2386 6
2387 7
2388 10
2389 20
2390 18
2391 24
2392 1
2393 0
2394 15
2395 10
2396 23
2397 9
2398 18
2399 11
2400 3
2401 15
2402 18
2403 12
2404 5
2405 3
2406 24
2407 18
2408 23
2409 22
2410 5
2411 3
2412 20
2413 1
2414 24
2415 13
2416 20
2417 16
2418 11
2419 20
2420 12
2421 0
2422 3
2423 17
2424 1
2425 16
2426 5
2427 19
2428 2
2429 12
2430 5
2431 14
2432 12
2433 15
2434 8
2435 13
2436 3
2437 12
2438 7
2439 11
2440 14
2441 1
2442 8
2443 11
2444 16
2445 14
2446 5
2447 14
2448 20
2449 13
2450 2
2451 18
2452 20
2453 23
2454 18
2455 24
2456 20
2457 7
2458 20
2459 8
2460 23
2461 3
2462 14
2463 6
2464 23
2465 14
2466 4
2467 2
2468 7
2469 3
2470 10
2471 0
2472 23
2473 15
2474 15
2475 7
2476 8
2477 15
2478 9
2479 6
2480 16
2481 20
2482 9
2483 8
2484 4
2485 3
2486 12
2487 8
2488 12
2489 11
2490 16
2491 21
2492 14
2493 11
2494 18
2495 10
2496 9
2497 23
2498 13
2499 12
2500 23
2501 11
2502 15
2503 23
2504 24
2505 6
2506 12
2507 18
2508 16
2509 16
2510 5
2511 24
2512 24
2513 22
2514 20
2515 19
2516 23
2517 21
2518 7
2519 18
2520 4
2521 22
2522 17
2523 9
2524 20
2525 2
2526 2
2527 12
2528 5
2529 20
2530 24
2531 19
2532 22
2533 21
2534 8
2535 6
2536 17
2537 2
2538 23
2539 23
2540 23
2541 4
2542 13
2543 1
2544 2
2545 0
2546 15
2547 1
2548 12
2549 4
2550 23
2551 1
2552 1
2553 2
2554 11
2555 2
2556 24
2557 10
2558 14
2559 24
2560 21
2561 13
2562 7
2563 13
2564 19
2565 1
2566 10
2567 17
2568 13
2569 5
2570 6
2571 11
2572 12
2573 6
2574 0
2575 1
2576 18
2577 18
2578 21
2579 1
2580 1
2581 10
2582 24
2583 18
2584 7
2585 16
2586 0
2587 14
2588 18
2589 0
2590 19
2591 23
2592 14
2593 12
2594 4
2595 14
2596 4
2597 7
2598 13
2599 8
2600 6
2601 4
2602 2
2603 13
2604 3
2605 22
2606 9
2607 7
2608 2
2609 7
2610 1
2611 21
2612 19
2613 2
2614 1
2615 17
2616 18
2617 2
2618 18
2619 6
2620 21
2621 3
2622 0
2623 9
2624 2
2625 5
2626 12
2627 4
2628 24
2629 23
2630 12
2631 6
2632 20
2633 12
2634 14
2635 12
2636 20
2637 18
2638 21
2639 19
2640 4
2641 6
2642 21
2643 6
2644 16
2645 9
2646 8
2647 11
2648 23
2649 4
2650 14
2651 18
2652 15
2653 24
2654 15
2655 2
2656 14
2657 7
2658 11
2659 15
2660 20
2661 17
2662 23
2663 18
2664 7
2665 17
2666 12
2667 0
2668 23
2669 13
2670 21
2671 19
2672 7
2673 22
2674 16
2675 4
2676 13
2677 0
2678 4
2679 18
2680 19
2681 0
2682 5
2683 15
2684 13
2685 15
2686 9
2687 19
2688 12
2689 6
2690 6
2691 0
2692 5
2693 18
2694 4
2695 12
2696 20
2697 15
2698 24
2699 8
2700 21
2701 15
2702 1
2703 10
2704 21
2705 19
2706 8
2707 23
2708 16
2709 18
2710 7
2711 23
2712 2
2713 24
2714 7
2715 16
2716 16
2717 4
2718 4
2719 14
2720 23
2721 14
2722 7
2723 21
2724 8
2725 17
2726 4
2727 6
2728 14
2729 14
2730 8
2731 7
2732 13
2733 11
2734 15
2735 24
2736 2
2737 18
2738 20
2739 11
2740 23
2741 14
2742 19
2743 2
2744 5
2745 16
2746 3
2747 14
2748 18
2749 8
2750 3
2751 0
2752 23
2753 4
2754 20
2755 2
2756 17
2757 12
2758 8
2759 24
2760 5
2761 24
2762 0
2763 4
2764 2
2765 5
2766 10
2767 18
2768 13
2769 24
2770 2
2771 22
2772 12
2773 10
2774 5
2775 21
2776 24
2777 22
2778 21
2779 8
2780 23
2781 16
2782 21
2783 6
2784 1
2785 5
2786 21
2787 4
2788 0
2789 16
2790 2
2791 17
2792 3
2793 23
2794 13
2795 17
2796 1
2797 0
2798 9
2799 9
2800 0
2801 24
2802 21
2803 4
2804 17
2805 12
2806 8
2807 9
2808 19
2809 4
2810 10
2811 15
2812 12
2813 9
2814 6
2815 2
2816 16
2817 6
2818 23
2819 11
2820 18
2821 22
2822 1
2823 18
2824 3
2825 1
2826 22
2827 13
2828 7
2829 10
2830 5
2831 9
2832 0
2833 16
2834 24
2835 7
2836 7
2837 21
2838 13
2839 8
2840 20
2841 10
2842 19
2843 6
2844 24
2845 18
2846 2
2847 2
2848 8
2849 15
2850 22
2851 7
2852 0
2853 7
2854 7
2855 6
2856 1
2857 20
2858 6
2859 10
2860 7
2861 18
2862 0
2863 1
2864 16
2865 0
2866 19
2867 12
2868 10
2869 9
2870 16
2871 5
2872 3
2873 10
2874 8
2875 3
2876 5
2877 13
2878 4
2879 4
2880 24
2881 22
2882 9
2883 19
2884 10
2885 19
2886 20
2887 13
2888 15
2889 14
2890 16
2891 8
2892 12
2893 8
2894 9
2895 4
2896 5
2897 1
2898 6
2899 4
2900 4
2901 21
2902 5
2903 13
2904 4
2905 24
2906 3
2907 2
2908 18
2909 6
2910 16
2911 14
2912 18
2913 2
2914 16
2915 10
2916 6
2917 1
2918 12
2919 10
2920 8
2921 13
2922 11
2923 4
2924 0
2925 19
2926 23
2927 15
2928 16
2929 7
2930 24
2931 6
2932 20
2933 18
2934 15
2935 10
2936 24
2937 18
2938 20
2939 23
2940 7
2941 13
2942 12
2943 22
2944 24
2945 2
2946 7
2947 24
2948 24
2949 7
2950 8
2951 9
2952 17
2953 9
2954 22
2955 17
2956 1
2957 2
2958 8
2959 7
2960 21
2961 22
2962 0
2963 5
2964 15
2965 6
2966 24
2967 2
2968 14
2969 13
2970 6
2971 18
2972 12
2973 0
2974 3
2975 16
2976 3
2977 9
2978 12
2979 23
2980 18
2981 18
2982 6
2983 6
2984 11
2985 14
2986 17
2987 15
2988 6
2989 0
2990 9
2991 6
2992 2
2993 15
2994 13
2995 7
2996 8
2997 0
2998 6
2999 22
3000 24
3001 4
3002 5
3003 16
3004 22
3005 8
3006 11
3007 5
3008 21
3009 22
3010 19
3011 22
3012 0
3013 1
3014 13
3015 12
3016 1
3017 3
3018 21
3019 18
3020 5
3021 23
3022 22
3023 4
3024 7
3025 12
3026 7
3027 17
3028 1
3029 20
3030 22
3031 0
3032 22
3033 3
3034 2
3035 19
3036 4
3037 10
3038 24
3039 6
3040 4
3041 8
3042 10
3043 2
3044 0
3045 0
3046 21
3047 20
3048 20
3049 14
3050 19
3051 22
3052 21
3053 3
3054 17
3055 21
3056 3
3057 14
3058 13
3059 6
3060 11
3061 5
3062 18
3063 13
3064 3
3065 3
3066 18
3067 15
3068 15
3069 3
3070 0
3071 23
3072 10
3073 24
3074 5
3075 2
3076 11
3077 24
3078 5
3079 12
3080 4
3081 17
3082 13
3083 2
3084 12
3085 19
3086 18
3087 13
3088 7
3089 24
3090 1
3091 10
3092 4
3093 1
3094 13
3095 5
3096 19
3097 8
3098 16
3099 23
3100 10
3101 18
3102 17
3103 18
3104 4
3105 11
3106 2
3107 16
3108 17
3109 21
3110 10
3111 8
3112 7
3113 5
3114 11
3115 3
3116 8
3117 12
3118 3
3119 2
3120 13
3121 15
3122 18
3123 3
3124 20
3125 22
3126 24
3127 8
3128 12
3129 6
3130 7
3131 16
3132 6
3133 21
3134 3
3135 14
3136 6
3137 16
3138 20
3139 1
3140 22
3141 20
3142 7
3143 5
3144 22
3145 19
3146 4
3147 17
3148 6
3149 22
3150 20
3151 19
3152 8
3153 8
3154 24
3155 7
3156 7
3157 2
3158 7
3159 21
3160 22
3161 3
3162 16
3163 16
3164 7
3165 17
3166 12
3167 13
3168 8
3169 1
3170 6
3171 9
3172 7
3173 2
3174 20
3175 13
3176 10
3177 6
3178 10
3179 19
3180 16
3181 24
3182 15
3183 15
3184 14
3185 23
3186 7
3187 19
3188 9
3189 19
3190 10
3191 14
3192 15
3193 6
3194 14
3195 5
3196 12
3197 8
3198 24
3199 24
3200 0
3201 17
3202 18
3203 24
3204 0
3205 6
3206 1
3207 19
3208 17
3209 2
3210 12
3211 23
3212 15
3213 24
3214 23
3215 20
3216 17
3217 24
3218 1
3219 20
3220 13
3221 5
3222 23
3223 14
3224 10
3225 16
3226 8
3227 0
3228 3
3229 15
3230 6
3231 12
3232 22
3233 4
3234 23
3235 5
3236 2
3237 6
3238 15
3239 24
3240 21
3241 11
3242 21
3243 7
3244 5
3245 21
3246 2
3247 18
3248 18
3249 0
3250 8
3251 7
3252 20
3253 18
3254 22
3255 19
3256 23
3257 1
3258 10
3259 10
3260 13
3261 19
3262 4
3263 2
3264 21
3265 22
3266 9
3267 12
3268 9
3269 9
3270 13
3271 23
3272 3
3273 16
3274 0
3275 2
3276 18
3277 6
3278 24
3279 2
3280 1
3281 8
3282 1
3283 4
3284 20
3285 4
3286 10
3287 7
3288 21
3289 15
3290 23
3291 3
3292 7
3293 2
3294 17
3295 14
3296 5
3297 0
3298 3
3299 19
3300 4
3301 3
3302 3
3303 14
3304 17
3305 1
3306 20
3307 12
3308 9
3309 1
3310 9
3311 10
3312 20
3313 7
3314 1
3315 18
3316 7
3317 3
3318 14
3319 10
3320 24
3321 12
3322 4
3323 12
3324 18
3325 16
3326 23
3327 21
3328 20
3329 15
3330 24
3331 12
3332 18
3333 18
3334 15
3335 4
3336 14
3337 14
3338 4
3339 9
3340 20
3341 11
3342 19
3343 5
3344 18
3345 10
3346 0
3347 14
3348 6
3349 1
3350 20
3351 14
3352 0
3353 16
3354 4
3355 22
3356 0
3357 22
3358 7
3359 14
3360 1
3361 3
3362 15
3363 24
3364 17
3365 22
3366 11
3367 9
3368 3
3369 7
3370 3
3371 23
3372 0
3373 5
3374 16
3375 6
3376 12
3377 10
3378 23
3379 3
3380 4
3381 13
3382 1
3383 19
3384 17
3385 20
3386 3
3387 12
3388 9
3389 24
3390 3
3391 5
3392 18
3393 7
3394 3
3395 4
3396 11
3397 5
3398 2
3399 9
3400 9
3401 3
3402 15
3403 0
3404 10
3405 15
3406 14
3407 2
3408 20
3409 15
3410 2
3411 21
3412 18
3413 4
3414 22
3415 10
3416 8
3417 22
3418 2
3419 10
3420 1
3421 4
3422 17
3423 11
3424 4
3425 0
3426 20
3427 2
3428 8
3429 5
3430 1
3431 17
3432 10
3433 24
3434 12
3435 0
3436 5
3437 12
3438 2
3439 5
3440 16
3441 21
3442 8
3443 19
3444 17
3445 8
3446 12
3447 17
3448 9
3449 10
3450 2
3451 19
3452 18
3453 6
3454 10
3455 1
3456 1
3457 23
3458 16
3459 2
3460 24
3461 7
3462 1
3463 19
3464 3
3465 24
3466 16
3467 6
3468 4
3469 8
3470 4
3471 8
3472 1
3473 9
3474 23
3475 20
3476 13
3477 16
3478 1
3479 13
3480 10
3481 15
3482 2
3483 10
3484 5
3485 16
3486 10
3487 21
3488 4
3489 6
3490 2
3491 4
3492 10
3493 17
3494 2
3495 1
3496 19
3497 17
3498 0
3499 24
3500 10
3501 15
3502 5
3503 6
3504 8
3505 0
3506 20
3507 0
3508 15
3509 4
3510 20
3511 7
3512 17
3513 17
3514 5
3515 17
3516 18
3517 10
3518 19
3519 5
3520 3
3521 21
3522 14
3523 1
3524 17
3525 23
3526 5
3527 16
3528 13
3529 12
3530 18
3531 0
3532 15
3533 0
3534 6
3535 13
3536 6
3537 16
3538 4
3539 17
3540 12
3541 15
3542 13
3543 16
3544 3
3545 9
3546 15
3547 1
3548 20
3549 22
3550 15
3551 20
3552 7
3553 0
3554 23
3555 18
3556 12
3557 22
3558 5
3559 11
3560 12
3561 5
3562 13
3563 17
3564 13
3565 19
3566 4
3567 3
3568 12
3569 19
3570 4
3571 13
3572 18
3573 3
3574 11
3575 12
3576 24
3577 16
3578 24
3579 16
3580 5
3581 20
3582 4
3583 9
3584 0
3585 21
3586 11
3587 8
3588 21
3589 9
3590 7
3591 15
3592 16
3593 13
3594 13
3595 6
3596 19
3597 22
3598 22
3599 17
3600 1
3601 3
3602 4
3603 7
3604 0
3605 14
3606 5
3607 7
3608 3
3609 2
3610 1
3611 16
3612 16
3613 0
3614 4
3615 7
3616 7
3617 6
3618 16
3619 13
3620 8
3621 11
3622 15
3623 1
3624 6
3625 4
3626 13
3627 16
3628 20
3629 5
3630 5
3631 15
3632 1
3633 12
3634 2
3635 4
3636 4
3637 17
3638 16
3639 5
3640 23
3641 12
3642 2
3643 23
3644 15
3645 11
3646 13
3647 18
3648 4
3649 6
3650 20
3651 13
3652 10
3653 19
3654 7
3655 7
3656 20
3657 6
3658 15
3659 8
3660 6
3661 15
3662 13
3663 20
3664 2
3665 10
3666 22
3667 13
3668 20
3669 19
3670 11
3671 5
3672 16
3673 21
3674 23
3675 24
3676 3
3677 2
3678 18
3679 24
3680 15
3681 0
3682 21
3683 14
3684 21
3685 12
3686 19
3687 0
3688 0
3689 21
3690 15
3691 11
3692 21
3693 1
3694 12
3695 8
3696 1
3697 2
3698 3
3699 12
3700 0
3701 17
3702 12
3703 10
3704 20
3705 8
3706 8
3707 10
3708 4
3709 22
3710 24
3711 16
3712 3
3713 16
3714 16
3715 15
3716 4
3717 11
3718 4
3719 21
3720 9
3721 22
3722 22
3723 3
3724 16
3725 17
3726 4
3727 0
3728 19
3729 19
3730 2
3731 1
3732 2
3733 6
3734 14
3735 0
3736 10
3737 4
3738 14
3739 19
3740 0
3741 11
3742 1
3743 4
3744 0
3745 22
3746 22
3747 3
3748 6
3749 19
3750 3
3751 11
3752 5
3753 12
3754 2
3755 24
3756 8
3757 13
3758 24
3759 16
3760 18
3761 4
3762 13
3763 7
3764 19
3765 5
3766 23
3767 20
3768 11
3769 22
3770 17
3771 12
3772 3
3773 16
3774 13
3775 2
3776 14
3777 19
3778 5
3779 14
3780 20
3781 24
3782 11
3783 23
3784 7
3785 22
3786 14
3787 14
3788 8
3789 24
3790 22
3791 7
3792 23
3793 23
3794 23
3795 4
3796 21
3797 14
3798 16
3799 2
3800 24
3801 5
3802 8
3803 5
3804 8
3805 22
3806 11
3807 2
3808 6
3809 13
3810 11
3811 5
3812 13
3813 0
3814 17
3815 20
3816 0
3817 7
3818 13
3819 13
3820 10
3821 0
3822 8
3823 1
3824 15
3825 0
3826 10
3827 3
3828 13
3829 5
3830 4
3831 18
3832 13
3833 13
3834 0
3835 13
3836 11
3837 15
3838 2
3839 10
3840 2
3841 16
3842 1
3843 6
3844 1
3845 22
3846 10
3847 22
3848 14
3849 1
3850 19
3851 21
3852 12
3853 3
3854 2
3855 20
3856 13
3857 11
3858 21
3859 17
3860 5
3861 9
3862 14
3863 10
3864 21
3865 16
3866 4
3867 17
3868 13
3869 21
3870 6
3871 8
3872 18
3873 6
3874 19
3875 5
3876 3
3877 9
3878 0
3879 17
3880 17
3881 3
3882 8
3883 3
3884 3
3885 2
3886 19
3887 6
3888 11
3889 2
3890 3
3891 5
3892 3
3893 8
3894 18
3895 17
3896 9
3897 1
3898 14
3899 1
3900 4
3901 8
3902 24
3903 18
3904 7
3905 24
3906 9
3907 18
3908 7
3909 0
3910 5
3911 6
3912 5
3913 19
3914 9
3915 11
3916 16
3917 6
3918 15
3919 6
3920 16
3921 3
3922 12
3923 2
3924 13
3925 13
3926 23
3927 0
3928 23
3929 20
3930 17
3931 21
3932 17
3933 7
3934 10
3935 7
3936 4
3937 8
3938 6
3939 14
3940 20
3941 5
3942 19
3943 11
3944 9
3945 14
3946 18
3947 22
3948 16
3949 12
3950 10
3951 10
3952 18
3953 10
3954 7
3955 12
3956 22
3957 16
3958 12
3959 23
3960 11
3961 10
3962 24
3963 16
3964 18
3965 1
3966 9
3967 22
3968 7
3969 11
3970 24
3971 17
3972 2
3973 23
3974 24
3975 0
3976 24
3977 19
3978 9
3979 4
3980 13
3981 15
3982 8
3983 21
3984 22
3985 15
3986 7
3987 6
3988 20
3989 15
3990 15
3991 18
3992 10
3993 9
3994 15
3995 12
3996 13
3997 5
3998 21
3999 22
4000 19
4001 9
4002 12
4003 19
4004 6
4005 3
4006 20
4007 16
4008 5
4009 24
4010 9
4011 1
4012 11
4013 18
4014 16
4015 18
4016 13
4017 11
4018 8
4019 8
4020 10
4021 14
4022 6
4023 19
4024 9
4025 17
4026 1
4027 23
4028 14
4029 7
4030 11
4031 14
4032 14
4033 20
4034 14
4035 17
4036 12
4037 7
4038 15
4039 18
4040 16
4041 8
4042 0
4043 13
4044 4
4045 3
4046 19
4047 9
4048 8
4049 4
4050 8
4051 3
4052 21
4053 18
4054 20
4055 24
4056 14
4057 1
4058 3
4059 15
4060 22
4061 5
4062 1
4063 6
4064 6
4065 24
4066 12
4067 1
4068 10
4069 7
4070 18
4071 14
4072 12
4073 13
4074 9
4075 21
4076 5
4077 10
4078 6
4079 13
4080 19
4081 6
4082 7
4083 22
4084 8
4085 13
4086 22
4087 11
4088 5
4089 9
4090 13
4091 19
4092 4
4093 20
4094 1
4095 17
4096 22
4097 4
4098 24
4099 10
4100 7
4101 18
4102 11
4103 15
4104 3
4105 11
4106 24
4107 24
4108 17
4109 16
4110 18
4111 9
4112 21
4113 0
4114 10
4115 15
4116 3
4117 5
4118 13
4119 20
4120 22
4121 20
4122 2
4123 23
4124 17
4125 21
4126 5
4127 5
4128 22
4129 8
4130 5
4131 12
4132 7
4133 10
4134 3
4135 9
4136 20
4137 23
4138 23
4139 8
4140 12
4141 18
4142 9
4143 14
4144 21
4145 7
4146 8
4147 8
4148 13
4149 19
4150 4
4151 13
4152 16
4153 9
4154 7
4155 24
4156 16
4157 3
4158 1
4159 21
4160 23
4161 13
4162 12
4163 18
4164 3
4165 7
4166 22
4167 12
4168 4
4169 4
4170 9
4171 3
4172 23
4173 23
4174 6
4175 7
4176 24
4177 6
4178 21
4179 16
4180 0
4181 4
4182 15
4183 5
4184 15
4185 12
4186 10
4187 4
4188 3
4189 18
4190 17
4191 22
4192 3
4193 0
4194 24
4195 4
4196 17
4197 23
4198 20
4199 19
4200 9
4201 12
4202 4
4203 9
4204 5
4205 6
4206 21
4207 1
4208 6
4209 9
4210 10
4211 12
4212 16
4213 6
4214 3
4215 0
4216 6
4217 14
4218 18
4219 1
4220 2
4221 9
4222 0
4223 9
4224 8
4225 11
4226 13
4227 17
4228 4
4229 22
4230 12
4231 22
4232 11
4233 24
4234 11
4235 4
4236 6
4237 2
4238 5
4239 6
4240 1
4241 20
4242 12
4243 19
4244 19
4245 9
4246 17
4247 20
4248 10
4249 17
4250 20
4251 20
4252 12
4253 22
4254 17
4255 18
4256 12
4257 24
4258 24
4259 21
4260 24
4261 23
4262 5
4263 12
4264 13
4265 19
4266 15
4267 18
4268 2
4269 11
4270 5
4271 9
4272 14
4273 14
4274 6
4275 18
4276 8
4277 9
4278 6
4279 13
4280 13
4281 1
4282 7
4283 13
4284 13
4285 7
4286 19
4287 14
4288 19
4289 16
4290 2
4291 17
4292 20
4293 11
4294 17
4295 23
4296 19
4297 24
4298 3
4299 14
4300 14
4301 15
4302 16
4303 5
4304 19
4305 0
4306 5
4307 2
4308 8
4309 1
4310 13
4311 4
4312 8
4313 4
4314 19
4315 18
4316 24
4317 16
4318 6
4319 1
4320 16
4321 9
4322 24
4323 11
4324 12
4325 16
4326 5
4327 10
4328 14
4329 17
4330 18
4331 0
4332 17
4333 3
4334 6
4335 15
4336 23
4337 5
4338 14
4339 5
4340 1
4341 18
4342 14
4343 3
4344 9
4345 23
4346 5
4347 1
4348 4
4349 21
4350 17
4351 24
4352 20
4353 22
4354 13
4355 18
4356 16
4357 22
4358 13
4359 20
4360 19
4361 20
4362 24
4363 3
4364 0
4365 18
4366 14
4367 5
4368 22
4369 18
4370 15
4371 0
4372 10
4373 19
4374 19
4375 9
4376 2
4377 16
4378 2
4379 22
4380 18
4381 18
4382 22
4383 1
4384 17
4385 0
4386 19
4387 19
4388 23
4389 6
4390 1
4391 1
4392 16
4393 4
4394 8
4395 7
4396 7
4397 23
4398 11
4399 8
4400 4
4401 10
4402 17
4403 23
4404 11
4405 13
4406 14
4407 23
4408 16
4409 4
4410 17
4411 20
4412 10
4413 1
4414 0
4415 24
4416 13
4417 11
4418 3
4419 17
4420 18
4421 24
4422 17
4423 24
4424 13
4425 10
4426 7
4427 15
4428 7
4429 12
4430 24
4431 9
4432 21
4433 9
4434 18
4435 2
4436 14
4437 1
4438 9
4439 15
4440 14
4441 8
4442 12
4443 12
4444 12
4445 21
4446 23
4447 6
4448 24
4449 21
4450 0
4451 9
4452 0
4453 21
4454 15
4455 12
4456 9
4457 10
4458 13
4459 18
4460 19
4461 6
4462 15
4463 2
4464 2
4465 2
4466 8
4467 10
4468 23
4469 22
4470 5
4471 15
4472 24
4473 0
4474 19
4475 2
4476 9
4477 9
4478 24
4479 9
4480 9
4481 0
4482 7
4483 0
4484 14
4485 18
4486 3
4487 12
4488 17
4489 8
4490 12
4491 2
4492 9
4493 16
4494 19
4495 9
4496 23
4497 23
4498 8
4499 19
4500 1
4501 2
4502 6
4503 0
4504 5
4505 20
4506 3
4507 20
4508 0
4509 19
4510 4
4511 23
4512 20
4513 15
4514 17
4515 16
4516 24
4517 0
4518 8
4519 22
4520 1
4521 16
4522 10
4523 19
4524 24
4525 16
4526 3
4527 9
4528 0
4529 22
4530 0
4531 13
4532 15
4533 9
4534 6
4535 9
4536 4
4537 18
4538 16
4539 3
4540 8
4541 4
4542 23
4543 5
4544 7
4545 1
4546 6
4547 22
4548 5
4549 6
4550 7
4551 10
4552 6
4553 1
4554 24
4555 1
4556 24
4557 20
4558 7
4559 15
4560 2
4561 16
4562 20
4563 21
4564 10
4565 6
4566 20
4567 16
4568 10
4569 6
4570 24
4571 15
4572 15
4573 16
4574 3
4575 16
4576 1
4577 8
4578 22
4579 24
4580 15
4581 22
4582 4
4583 0
4584 8
4585 24
4586 6
4587 15
4588 9
4589 12
4590 22
4591 5
4592 20
4593 24
4594 4
4595 10
4596 5
4597 3
4598 8
4599 19
4600 7
4601 14
4602 18
4603 8
4604 4
4605 0
4606 14
4607 2
4608 22
4609 3
4610 23
4611 0
4612 20
4613 19
4614 22
4615 6
4616 22
4617 23
4618 1
4619 11
4620 5
4621 14
4622 0
4623 15
4624 21
4625 15
4626 5
4627 23
4628 12
4629 22
4630 20
4631 6
4632 15
4633 2
4634 11
4635 4
4636 6
4637 2
4638 1
4639 18
4640 18
4641 1
4642 6
4643 15
4644 15
4645 19
4646 11
4647 5
4648 21
4649 18
4650 19
4651 19
4652 5
4653 0
4654 20
4655 0
4656 9
4657 23
4658 19
4659 19
4660 18
4661 21
4662 0
4663 7
4664 15
4665 7
4666 9
4667 1
4668 24
4669 19
4670 3
4671 4
4672 17
4673 4
4674 16
4675 23
4676 24
4677 11
4678 10
4679 15
4680 4
4681 16
4682 19
4683 13
4684 16
4685 2
4686 15
4687 20
4688 16
4689 3
4690 9
4691 17
4692 5
4693 8
4694 10
4695 14
4696 10
4697 13
4698 4
4699 16
4700 15
4701 2
4702 12
4703 24
4704 18
4705 19
4706 14
4707 5
4708 1
4709 7
4710 9
4711 0
4712 9
4713 13
4714 14
4715 22
4716 5
4717 7
4718 7
4719 20
4720 0
4721 20
4722 5
4723 23
4724 24
4725 18
4726 11
4727 18
4728 16
4729 14
4730 6
4731 19
4732 6
4733 22
4734 10
4735 1
4736 12
4737 20
4738 5
4739 12
4740 1
4741 7
4742 11
4743 16
4744 15
4745 0
4746 22
4747 19
4748 23
4749 21
4750 13
4751 10
4752 22
4753 0
4754 0
4755 8
4756 12
4757 8
4758 1
4759 8
4760 7
4761 18
4762 6
4763 22
4764 21
4765 0
4766 11
4767 22
4768 5
4769 6
4770 21
4771 15
4772 22
4773 0
4774 11
4775 17
4776 9
4777 17
4778 11
4779 18
4780 4
4781 13
4782 12
4783 19
4784 17
4785 18
4786 17
4787 16
4788 0
4789 3
4790 24
4791 11
4792 4
4793 16
4794 10
4795 3
4796 11
4797 16
4798 3
4799 6
4800 9
4801 8
4802 4
4803 8
4804 13
4805 20
4806 18
4807 7
4808 4
4809 15
4810 9
4811 16
4812 8
4813 19
4814 14
4815 11
4816 16
4817 16
4818 23
4819 8
4820 18
4821 22
4822 6
4823 12
4824 14
4825 23
4826 6
4827 19
4828 10
4829 7
4830 0
4831 20
4832 0
4833 24
4834 21
4835 24
4836 2
4837 1
4838 10
4839 15
4840 3
4841 0
4842 16
4843 19
4844 10
4845 3
4846 9
4847 12
4848 14
4849 13
4850 23
4851 7
4852 8
4853 17
4854 16
4855 6
4856 18
4857 7
4858 15
4859 7
4860 7
4861 10
4862 21
4863 22
4864 13
4865 23
4866 24
4867 20
4868 16
4869 2
4870 11
4871 0
4872 18
4873 2
4874 5
4875 7
4876 7
4877 5
4878 20
4879 20
4880 22
4881 1
4882 10
4883 9
4884 12
4885 22
4886 4
4887 13
4888 21
4889 3
4890 14
4891 5
4892 1
4893 6
4894 7
4895 18
4896 16
4897 14
4898 21
4899 22
4900 20
4901 12
4902 8
4903 4
4904 12
4905 10
4906 20
4907 12
4908 21
4909 9
4910 9
4911 17
4912 13
4913 9
4914 24
4915 18
4916 13
4917 12
4918 23
4919 11
4920 0
4921 21
4922 4
4923 17
4924 24
4925 19
4926 7
4927 17
4928 12
4929 2
4930 9
4931 2
4932 1
4933 20
4934 4
4935 20
4936 17
4937 3
4938 3
4939 9
4940 8
4941 0
4942 9
4943 6
4944 7
4945 4
4946 7
4947 9
4948 23
4949 24
4950 4
4951 6
4952 5
4953 19
4954 21
4955 17
4956 16
4957 11
4958 12
4959 14
4960 0
4961 8
4962 22
4963 3
4964 1
4965 22
4966 21
4967 2
4968 3
4969 9
4970 20
4971 19
4972 4
4973 23
4974 3
4975 0
4976 4
4977 16
4978 20
4979 8
4980 2
4981 20
4982 7
4983 13
4984 9
4985 13
4986 13
4987 2
4988 11
4989 9
4990 22
4991 20
4992 2
4993 0
4994 20
4995 4
4996 2
4997 0
4998 20
4999 4
5000 2
5001 12
5002 17
5003 4
5004 17
5005 22
5006 6
5007 1
5008 22
5009 5
5010 18
5011 3
5012 10
5013 11
5014 10
5015 14
5016 22
5017 13
5018 6
5019 9
5020 19
5021 13
5022 2
5023 17
5024 8
5025 4
5026 10
5027 6
5028 14
5029 1
5030 5
5031 11
5032 6
5033 3
5034 1
5035 8
5036 13
5037 20
5038 17
5039 0
5040 11
5041 0
5042 1
5043 11
5044 20
5045 1
5046 15
5047 3
5048 2
5049 5
5050 9
5051 21
5052 15
5053 19
5054 13
5055 3
5056 22
5057 22
5058 12
5059 4
5060 21
5061 9
5062 6
5063 18
5064 20
5065 13
5066 13
5067 10
5068 0
5069 22
5070 0
5071 15
5072 12
5073 9
5074 17
5075 12
5076 16
5077 19
5078 4
5079 0
5080 8
5081 8
5082 18
5083 2
5084 7
5085 8
5086 23
5087 2
5088 19
5089 21
5090 18
5091 16
5092 17
5093 16
5094 2
5095 0
5096 10
5097 24
5098 22
5099 0
5100 14
5101 8
5102 5
5103 11
5104 10
5105 11
5106 6
5107 0
5108 7
5109 15
5110 11
5111 17
5112 13
5113 6
5114 8
5115 0
5116 2
5117 19
5118 1
5119 7
5120 15
5121 5
5122 23
5123 9
5124 8
5125 4
5126 3
5127 9
5128 19
5129 1
5130 0
5131 19
5132 4
5133 8
5134 19
5135 9
5136 10
5137 4
5138 23
5139 19
5140 6
5141 19
5142 20
5143 9
5144 4
5145 1
5146 18
5147 2
5148 24
5149 12
5150 22
5151 24
5152 9
5153 0
5154 24
5155 14
5156 10
5157 1
5158 6
5159 21
5160 16
5161 6
5162 17
5163 22
5164 23
5165 2
5166 9
5167 7
5168 11
5169 5
5170 16
5171 1
5172 10
5173 4
5174 16
5175 6
5176 0
5177 21
5178 24
5179 23
5180 0
5181 1
5182 13
5183 23
5184 4
5185 6
5186 23
5187 20
5188 19
5189 8
5190 24
5191 5
5192 19
5193 11
5194 4
5195 6
5196 17
5197 8
5198 12
5199 22
5200 24
5201 22
5202 5
5203 8
5204 3
5205 18
5206 24
5207 11
5208 20
5209 23
5210 15
5211 22
5212 2
5213 18
5214 1
5215 7
5216 6
5217 0
5218 8
5219 11
5220 13
5221 5
5222 6
5223 1
5224 16
5225 9
5226 5
5227 2
5228 22
5229 20
5230 12
5231 2
5232 6
5233 1
5234 18
5235 15
5236 10
5237 9
5238 20
5239 18
5240 18
5241 22
5242 0
5243 13
5244 3
5245 4
5246 8
5247 20
5248 22
5249 16
5250 9
5251 0
5252 5
5253 8
5254 13
5255 0
5256 17
5257 11
5258 23
5259 23
5260 13
5261 5
5262 17
5263 12
5264 22
5265 22
5266 15
5267 3
5268 14
5269 17
5270 3
5271 24
5272 16
5273 19
5274 10
5275 1
5276 4
5277 17
5278 19
5279 3
5280 12
5281 4
5282 6
5283 17
5284 21
5285 10
5286 17
5287 9
5288 20
5289 8
5290 6
5291 1
5292 15
5293 15
5294 15
5295 1
5296 3
5297 23
5298 12
5299 5
5300 0
5301 1
5302 22
5303 12
5304 15
5305 16
5306 4
5307 23
5308 24
5309 0
5310 3
5311 11
5312 12
5313 12
5314 9
5315 2
5316 24
5317 22
5318 17
5319 9
5320 0
5321 15
5322 15
5323 8
5324 12
5325 14
5326 16
5327 19
5328 11
5329 13
5330 1
5331 0
5332 3
5333 24
5334 0
5335 16
5336 1
5337 0
5338 24
5339 19
5340 1
5341 9
5342 15
5343 14
5344 8
5345 24
5346 9
5347 15
5348 0
5349 13
5350 20
5351 1
5352 10
5353 4
5354 12
5355 18
5356 14
5357 0
5358 21
5359 15
5360 16
5361 19
5362 13
5363 18
5364 18
5365 23
5366 2
5367 12
5368 12
5369 22
5370 19
5371 20
5372 13
5373 22
5374 10
5375 7
5376 4
5377 22
5378 15
5379 9
5380 4
5381 2
5382 10
5383 9
5384 20
5385 4
5386 11
5387 14
5388 13
5389 13
5390 11
5391 13
5392 17
5393 9
5394 1
5395 7
5396 11
5397 17
5398 4
5399 12
5400 0
5401 2
5402 16
5403 4
5404 21
5405 5
5406 20
5407 15
5408 17
5409 23
5410 1
5411 18
5412 20
5413 14
5414 18
5415 5
5416 0
5417 9
5418 13
5419 9
5420 10
5421 2
5422 14
5423 9
5424 23
5425 0
5426 10
5427 3
5428 17
5429 20
5430 3
5431 1
5432 19
5433 12
5434 23
5435 24
5436 21
5437 3
5438 2
5439 2
5440 22
5441 6
5442 19
5443 18
5444 4
5445 2
5446 4
5447 8
5448 4
5449 23
5450 17
5451 4
5452 2
5453 15
5454 20
5455 18
5456 1
5457 12
5458 3
5459 4
5460 14
5461 23
5462 1
5463 11
5464 18
5465 18
5466 18
5467 20
5468 20
5469 24
5470 1
5471 3
5472 0
5473 18
5474 5
5475 11
5476 16
5477 0
5478 1
5479 7
5480 17
5481 15
5482 12
5483 10
5484 23
5485 6
5486 6
5487 17
5488 21
5489 11
5490 4
5491 7
5492 24
5493 17
5494 4
5495 18
5496 17
5497 7
5498 9
5499 6
5500 19
5501 2
5502 8
5503 15
5504 2
5505 0
5506 4
5507 2
5508 12
5509 0
5510 9
5511 12
5512 10
5513 6
5514 15
5515 7
5516 0
5517 10
5518 12
5519 2
5520 19
5521 13
5522 14
5523 24
5524 20
5525 23
5526 6
5527 6
5528 24
5529 2
5530 24
5531 12
5532 22
5533 22
5534 13
5535 19
5536 13
5537 13
5538 15
5539 22
5540 10
5541 13
5542 7
5543 11
5544 16
5545 7
5546 23
5547 17
5548 3
5549 9
5550 7
5551 1
5552 17
5553 5
5554 7
5555 15
5556 1
5557 9
5558 15
5559 20
5560 24
5561 20
5562 16
5563 18
5564 20
5565 21
5566 13
5567 6
5568 19
5569 22
5570 21
5571 10
5572 19
5573 18
5574 23
5575 16
5576 8
5577 1
5578 22
5579 8
5580 21
5581 2
5582 16
5583 1
5584 15
5585 22
5586 0
5587 4
5588 7
5589 20
5590 0
5591 2
5592 18
5593 12
5594 24
5595 5
5596 11
5597 13
5598 0
5599 13
5600 2
5601 21
5602 20
5603 2
5604 21
5605 6
5606 1
5607 24
5608 7
5609 9
5610 16
5611 18
5612 20
5613 6
5614 9
5615 4
5616 22
5617 7
5618 10
5619 8
5620 15
5621 5
5622 8
5623 18
5624 0
5625 5
5626 12
5627 13
5628 23
5629 19
5630 4
5631 0
5632 7
5633 15
5634 16
5635 1
5636 1
5637 20
5638 18
5639 7
5640 22
5641 10
5642 11
5643 18
5644 21
5645 11
5646 19
5647 11
5648 6
5649 24
5650 21
5651 12
5652 5
5653 14
5654 8
5655 18
5656 2
5657 23
5658 0
5659 20
5660 8
5661 9
5662 0
5663 14
5664 1
5665 22
5666 0
5667 17
5668 17
5669 6
5670 2
5671 23
5672 20
5673 22
5674 4
5675 22
5676 16
5677 11
5678 12
5679 12
5680 16
5681 16
5682 13
5683 13
5684 4
5685 11
5686 11
5687 18
5688 18
5689 2
5690 5
5691 14
5692 11
5693 1
5694 4
5695 15
5696 20
5697 22
5698 15
5699 7
5700 5
5701 18
5702 12
5703 22
5704 8
5705 11
5706 21
5707 15
5708 7
5709 0
5710 4
5711 6
5712 11
5713 9
5714 10
5715 7
5716 19
5717 10
5718 5
5719 8
5720 14
5721 23
5722 20
5723 21
5724 17
5725 24
5726 20
5727 13
5728 8
5729 4
5730 0
5731 16
5732 22
5733 14
5734 17
5735 13
5736 18
5737 20
5738 16
5739 15
5740 8
5741 7
5742 15
5743 3
5744 18
5745 16
5746 10
5747 6
5748 0
5749 9
5750 0
5751 8
5752 24
5753 7
5754 1
5755 20
5756 2
5757 20
5758 11
5759 8
5760 6
5761 17
5762 24
5763 17
5764 3
5765 2
5766 5
5767 6
5768 17
5769 10
5770 5
5771 11
5772 3
5773 17
5774 7
5775 5
5776 24
5777 8
5778 11
5779 8
5780 9
5781 0
5782 0
5783 5
5784 15
5785 17
5786 12
5787 15
5788 18
5789 7
5790 3
5791 17
5792 11
5793 16
5794 22
5795 10
5796 23
5797 13
5798 14
5799 24
5800 22
5801 8
5802 15
5803 18
5804 22
5805 24
5806 17
5807 9
5808 6
5809 6
5810 3
5811 14
5812 4
5813 18
5814 8
5815 7
5816 10
5817 19
5818 18
5819 8
5820 13
5821 7
5822 10
5823 12
5824 18
5825 19
5826 10
5827 18
5828 6
5829 10
5830 21
5831 19
5832 8
5833 20
5834 19
5835 14
5836 10
5837 15
5838 6
5839 20
5840 7
5841 17
5842 1
5843 6
5844 8
5845 0
5846 7
5847 17
5848 19
5849 2
5850 0
5851 13
5852 4
5853 0
5854 10
5855 23
5856 23
5857 0
5858 3
5859 11
5860 22
5861 14
5862 3
5863 2
5864 0
5865 5
5866 3
5867 22
5868 14
5869 22
5870 20
5871 11
5872 5
5873 7
5874 19
5875 12
5876 22
5877 16
5878 17
5879 0
5880 19
5881 18
5882 1
5883 7
5884 18
5885 9
5886 22
5887 4
5888 8
5889 16
5890 10
5891 4
5892 22
5893 14
5894 20
5895 21
5896 8
5897 9
5898 23
5899 12
5900 23
5901 9
5902 2
5903 21
5904 0
5905 9
5906 1
5907 23
5908 9
5909 15
5910 14
5911 0
5912 4
5913 14
5914 21
5915 24
5916 23
5917 24
5918 16
5919 8
5920 17
5921 2
5922 16
5923 22
5924 11
5925 17
5926 24
5927 6
5928 11
5929 14
5930 8
5931 5
5932 1
5933 16
5934 2
5935 22
5936 8
5937 21
5938 14
5939 7
5940 8
5941 11
5942 6
5943 3
5944 9
5945 1
5946 24
5947 24
5948 15
5949 5
5950 14
5951 15
5952 24
5953 15
5954 3
5955 24
5956 2
5957 6
5958 14
5959 2
5960 21
5961 20
5962 4
5963 10
5964 12
5965 15
5966 7
5967 1
5968 18
5969 24
5970 14
5971 24
5972 15
5973 7
5974 6
5975 14
5976 21
5977 11
5978 13
5979 22
5980 10
5981 10
5982 19
5983 7
5984 22
5985 5
5986 23
5987 22
5988 20
5989 8
5990 7
5991 3
5992 1
5993 18
5994 16
5995 1
5996 20
5997 3
5998 5
5999 17
6000 5
6001 14
6002 11
6003 2
6004 7
6005 14
6006 4
6007 21
6008 2
6009 11
6010 0
6011 22
6012 21
6013 21
6014 1
6015 1
6016 7
6017 11
6018 12
6019 14
6020 1
6021 0
6022 14
6023 23
6024 0
6025 3
6026 12
6027 14
6028 15
6029 20
6030 14
6031 24
6032 1
6033 18
6034 19
6035 7
6036 4
6037 24
6038 7
6039 1
6040 21
6041 23
6042 24
6043 20
6044 21
6045 2
6046 13
6047 24
6048 7
6049 21
6050 5
6051 24
6052 20
6053 24
6054 9
6055 15
6056 20
6057 12
6058 6
6059 5
6060 20
6061 13
6062 17
6063 12
6064 0
6065 24
6066 23
6067 7
6068 12
6069 2
6070 21
6071 24
6072 19
6073 14
6074 20
6075 19
6076 3
6077 8
6078 9
6079 8
6080 15
6081 19
6082 9
6083 7
6084 20
6085 8
6086 7
6087 5
6088 8
6089 21
6090 17
6091 0
6092 7
6093 9
6094 7
6095 15
6096 17
6097 17
6098 6
6099 7
6100 20
6101 2
6102 1
6103 21
6104 18
6105 6
6106 5
6107 24
6108 12
6109 5
6110 19
6111 15
6112 19
6113 10
6114 19
6115 4
6116 8
6117 8
6118 4
6119 3
6120 19
6121 22
6122 18
6123 17
6124 16
6125 11
6126 11
6127 19
6128 13
6129 22
6130 2
6131 4
6132 10
6133 19
6134 8
6135 5
6136 2
6137 4
6138 20
6139 12
6140 22
6141 5
6142 19
6143 24
6144 12
6145 2
6146 3
6147 4
6148 19
6149 10
6150 0
6151 4
6152 8
6153 2
6154 20
6155 8
6156 11
6157 13
6158 9
6159 23
6160 20
6161 12
6162 3
6163 8
6164 12
6165 16
6166 8
6167 20
6168 8
6169 3
6170 16
6171 12
6172 5
6173 5
6174 2
6175 2
6176 19
6177 18
6178 20
6179 11
6180 20
6181 16
6182 22
6183 12
6184 10
6185 6
6186 11
6187 17
6188 1
6189 11
6190 21
6191 18
6192 9
6193 0
6194 8
6195 16
6196 16
6197 19
6198 20
6199 19
6200 11
6201 11
6202 24
6203 20
6204 15
6205 22
6206 12
6207 2
6208 17
6209 22
6210 13
6211 12
6212 10
6213 20
6214 0
6215 15
6216 19
6217 20
6218 22
6219 16
6220 1
6221 10
6222 14
6223 11
6224 21
6225 0
6226 21
6227 10
6228 5
6229 3
6230 12
6231 9
6232 13
6233 10
6234 2
6235 7
6236 12
6237 8
6238 16
6239 15
6240 23
6241 21
6242 5
6243 6
6244 7
6245 2
6246 4
6247 0
6248 10
6249 22
6250 20
6251 3
6252 8
6253 8
6254 15
6255 19
6256 6
6257 16
6258 12
6259 21
6260 22
6261 19
6262 4
6263 22
6264 23
6265 17
6266 10
6267 18
6268 9
6269 23
6270 24
6271 7
6272 0
6273 4
6274 4
6275 14
6276 19
6277 16
6278 9
6279 16
6280 20
6281 19
6282 14
6283 18
6284 6
6285 3
6286 7
6287 12
6288 6
6289 23
6290 19
6291 23
6292 3
6293 4
6294 6
6295 8
6296 3
6297 5
6298 19
6299 15
6300 24
6301 3
6302 21
6303 5
6304 5
6305 12
6306 23
6307 8
6308 5
6309 12
6310 8
6311 8
6312 22
6313 4
6314 23
6315 14
6316 18
6317 21
6318 23
6319 11
6320 10
6321 24
6322 24
6323 2
6324 21
6325 7
6326 23
6327 11
6328 1
6329 4
6330 19
6331 23
6332 1
6333 4
6334 13
6335 16
6336 12
6337 6
6338 13
6339 10
6340 12
6341 3
6342 14
6343 7
6344 1
6345 11
6346 7
6347 15
6348 7
6349 6
6350 11
6351 17
6352 9
6353 16
6354 1
6355 11
6356 23
6357 8
6358 22
6359 3
6360 24
6361 18
6362 20
6363 7
6364 18
6365 8
6366 24
6367 7
6368 15
6369 14
6370 9
6371 4
6372 17
6373 23
6374 0
6375 13
6376 12
6377 19
6378 9
6379 11
6380 7
6381 13
6382 17
6383 14
6384 10
6385 0
6386 24
6387 24
6388 2
6389 7
6390 12
6391 13
6392 5
6393 15
6394 17
6395 9
6396 15
6397 6
6398 6
6399 3
6400 23
6401 3
6402 19
6403 6
6404 20
6405 21
6406 19
6407 22
6408 5
6409 14
6410 5
6411 19
6412 17
6413 17
6414 12
6415 13
6416 18
6417 4
6418 14
6419 8
6420 16
6421 22
6422 16
6423 2
6424 1
6425 12
6426 20
6427 17
6428 19
6429 7
6430 2
6431 7
6432 23
6433 6
6434 24
6435 1
6436 24
6437 0
6438 16
6439 12
6440 24
6441 17
6442 20
6443 0
6444 17
6445 23
6446 23
6447 23
6448 14
6449 13
6450 12
6451 21
6452 24
6453 16
6454 8
6455 17
6456 23
6457 1
6458 12
6459 5
6460 16
6461 6
6462 23
6463 17
6464 22
6465 20
6466 19
6467 2
6468 20
6469 3
6470 14
6471 23
6472 24
6473 5
6474 1
6475 8
6476 6
6477 10
6478 6
6479 1
6480 2
6481 13
6482 17
6483 11
6484 20
6485 12
6486 23
6487 6
6488 17
6489 20
6490 1
6491 0
6492 17
6493 15
6494 5
6495 1
6496 2
6497 7
6498 7
6499 8
6500 7
6501 3
6502 8
6503 13
6504 13
6505 8
6506 16
6507 17
6508 3
6509 20
6510 0
6511 8
6512 14
6513 24
6514 9
6515 5
6516 0
6517 13
6518 19
6519 23
6520 6
6521 21
6522 3
6523 6
6524 14
6525 17
6526 6
6527 5
6528 1
6529 0
6530 5
6531 4
6532 17
6533 22
6534 13
6535 10
6536 5
6537 2
6538 21
6539 14
6540 1
6541 18
6542 12
6543 4
6544 5
6545 7
6546 17
6547 18
6548 12
6549 12
6550 0
6551 15
6552 23
6553 2
6554 11
6555 14
6556 20
6557 19
6558 8
6559 18
6560 1
6561 4
6562 4
6563 7
6564 4
6565 17
6566 17
6567 22
6568 17
6569 12
6570 17
6571 21
6572 13
6573 3
6574 3
6575 15
6576 4
6577 4
6578 23
6579 13
6580 19
6581 5
6582 9
6583 19
6584 1
6585 13
6586 20
6587 12
6588 2
6589 10
6590 20
6591 5
6592 1
6593 19
6594 0
6595 22
6596 12
6597 20
6598 12
6599 12
6600 18
6601 6
6602 18
6603 22
6604 3
6605 20
6606 4
6607 15
6608 10
6609 7
6610 4
6611 4
6612 22
6613 1
6614 8
6615 15
6616 21
6617 4
6618 20
6619 24
6620 0
6621 19
6622 3
6623 23
6624 19
6625 5
6626 1
6627 21
6628 13
6629 1
6630 7
6631 22
6632 5
6633 14
6634 17
6635 20
6636 15
6637 7
6638 14
6639 6
6640 11
6641 3
6642 10
6643 21
6644 19
6645 10
6646 6
6647 11
6648 16
6649 24
6650 21
6651 20
6652 15
6653 3
6654 4
6655 9
6656 20
6657 19
6658 15
6659 24
6660 2
6661 9
6662 22
6663 18
6664 7
6665 6
6666 6
6667 0
6668 17
6669 9
6670 3
6671 10
6672 16
6673 22
6674 5
6675 24
6676 7
6677 0
6678 13
6679 10
6680 3
6681 19
6682 22
6683 22
6684 8
6685 6
6686 14
6687 2
6688 5
6689 21
6690 23
6691 15
6692 20
6693 8
6694 6
6695 14
6696 9
6697 6
6698 10
6699 13
6700 20
6701 4
6702 20
6703 18
6704 13
6705 17
6706 20
6707 24
6708 22
6709 22
6710 7
6711 8
6712 13
6713 6
6714 8
6715 2
6716 15
6717 1
6718 15
6719 24
6720 19
6721 1
6722 8
6723 10
6724 11
6725 17
6726 21
6727 22
6728 7
6729 20
6730 6
6731 9
6732 0
6733 11
6734 7
6735 7
6736 21
6737 23
6738 9
6739 16
6740 1
6741 7
6742 21
6743 12
6744 24
6745 17
6746 3
6747 17
6748 5
6749 10
6750 23
6751 1
6752 15
6753 18
6754 5
6755 24
6756 12
6757 5
6758 6
6759 0
6760 22
6761 19
6762 23
6763 20
6764 16
6765 13
6766 1
6767 17
6768 10
6769 22
6770 7
6771 21
6772 3
6773 20
6774 16
6775 19
6776 0
6777 1
6778 12
6779 6
6780 4
6781 13
6782 21
6783 16
6784 13
6785 15
6786 16
6787 24
6788 14
6789 1
6790 6
6791 6
6792 11
6793 15
6794 14
6795 7
6796 6
6797 16
6798 13
6799 5
6800 8
6801 14
6802 3
6803 17
6804 18
6805 20
6806 1
6807 0
6808 23
6809 7
6810 24
6811 21
6812 9
6813 2
6814 8
6815 20
6816 22
6817 19
6818 17
6819 18
6820 21
6821 5
6822 18
6823 14
6824 21
6825 12
6826 24
6827 9
6828 15
6829 4
6830 24
6831 9
6832 7
6833 24
6834 5
6835 8
6836 3
6837 10
6838 2
6839 1
6840 13
6841 22
6842 3
6843 13
6844 2
6845 21
6846 5
6847 0
6848 5
6849 6
6850 10
6851 4
6852 3
6853 14
6854 0
6855 4
6856 16
6857 11
6858 2
6859 9
6860 1
6861 15
6862 19
6863 24
6864 2
6865 6
6866 24
6867 0
6868 0
6869 16
6870 18
6871 13
6872 19
6873 1
6874 4
6875 9
6876 7
6877 11
6878 23
6879 19
6880 2
6881 9
6882 20
6883 5
6884 3
6885 3
6886 15
6887 24
6888 15
6889 5
6890 4
6891 15
6892 8
6893 21
6894 24
6895 15
6896 17
6897 15
6898 4
6899 8
6900 9
6901 7
6902 19
6903 4
6904 1
6905 9
6906 9
6907 24
6908 3
6909 8
6910 24
6911 24
6912 4
6913 19
6914 6
6915 14
6916 1
6917 16
6918 11
6919 23
6920 24
6921 14
6922 7
6923 2
6924 23
6925 1
6926 19
6927 1
6928 23
6929 6
6930 15
6931 6
6932 17
6933 1
6934 23
6935 0
6936 22
6937 19
6938 3
6939 23
6940 4
6941 5
6942 12
6943 7
6944 18
6945 22
6946 8
6947 0
6948 18
6949 12
6950 10
6951 18
6952 20
6953 0
6954 21
6955 2
6956 9
6957 5
6958 1
6959 0
6960 20
6961 9
6962 14
6963 8
6964 12
6965 2
6966 22
6967 4
6968 2
6969 7
6970 7
6971 23
6972 21
6973 6
6974 24
6975 15
6976 3
6977 1
6978 22
6979 24
6980 8
6981 0
6982 22
6983 22
6984 10
6985 0
6986 5
6987 7
6988 6
6989 11
6990 7
6991 23
6992 9
6993 16
6994 23
6995 9
6996 14
6997 17
6998 0
6999 17
7000 15
7001 22
7002 15
7003 15
7004 12
7005 3
7006 2
7007 1
7008 4
7009 13
7010 5
7011 6
7012 22
7013 6
7014 13
7015 18
7016 2
7017 21
7018 16
7019 13
7020 7
7021 0
7022 6
7023 13
7024 2
7025 7
7026 3
7027 1
7028 22
7029 9
7030 6
7031 1
7032 24
7033 9
7034 24
7035 16
7036 10
7037 11
7038 0
7039 20
7040 14
7041 1
7042 22
7043 7
7044 8
7045 10
7046 3
7047 6
7048 6
7049 10
7050 19
7051 8
7052 0
7053 0
7054 12
7055 12
7056 15
7057 6
7058 18
7059 2
7060 7
7061 1
7062 9
7063 11
7064 3
7065 12
7066 10
7067 17
7068 22
7069 15
7070 16
7071 5
7072 23
7073 19
7074 11
7075 12
7076 4
7077 7
7078 7
7079 10
7080 16
7081 2
7082 10
7083 24
7084 7
7085 10
7086 19
7087 3
7088 3
7089 16
7090 11
7091 13
7092 9
7093 11
7094 1
7095 6
7096 18
7097 18
7098 5
7099 18
7100 16
7101 19
7102 17
7103 22
7104 21
7105 4
7106 9
7107 13
7108 14
7109 1
7110 13
7111 20
7112 14
7113 8
7114 3
7115 15
7116 14
7117 23
7118 3
7119 19
7120 0
7121 3
7122 10
7123 16
7124 0
7125 24
7126 23
7127 19
7128 0
7129 19
7130 21
7131 18
7132 20
7133 9
7134 11
7135 13
7136 22
7137 2
7138 8
7139 13
7140 23
7141 2
7142 24
7143 15
7144 11
7145 9
7146 20
7147 14
7148 1
7149 15
7150 3
7151 10
7152 9
7153 11
7154 10
7155 3
7156 5
7157 11
7158 5
7159 18
7160 20
7161 15
7162 21
7163 3
7164 2
7165 4
7166 5
7167 10
7168 24
7169 12
7170 19
7171 22
7172 21
7173 0
7174 12
7175 4
7176 18
7177 15
7178 8
7179 12
7180 16
7181 5
7182 9
7183 9
7184 0
7185 8
7186 0
7187 10
7188 2
7189 10
7190 2
7191 22
7192 8
7193 1
7194 2
7195 13
7196 1
7197 1
7198 20
7199 20
7200 14
7201 17
7202 20
7203 23
7204 13
7205 12
7206 6
7207 24
7208 15
7209 12
7210 22
7211 9
7212 5
7213 20
7214 2
7215 7
7216 5
7217 11
7218 10
7219 1
7220 6
7221 13
7222 5
7223 17
7224 20
7225 10
7226 19
7227 14
7228 11
7229 21
7230 17
7231 6
7232 18
7233 15
7234 18
7235 20
7236 9
7237 19
7238 17
7239 23
7240 8
7241 22
7242 22
7243 9
7244 9
7245 6
7246 22
7247 0
7248 13
7249 23
7250 22
7251 9
7252 3
7253 15
7254 8
7255 23
7256 1
7257 21
7258 13
7259 14
7260 2
7261 7
7262 12
7263 22
7264 13
7265 6
7266 11
7267 19
7268 2
7269 15
7270 7
7271 16
7272 6
7273 12
7274 13
7275 6
7276 22
7277 8
7278 21
7279 18
7280 15
7281 16
7282 6
7283 24
7284 6
7285 13
7286 3
7287 14
7288 6
7289 17
7290 8
7291 22
7292 1
7293 6
7294 2
7295 8
7296 17
7297 19
7298 15
7299 4
7300 21
7301 4
7302 2
7303 20
7304 5
7305 23
7306 17
7307 18
7308 12
7309 20
7310 16
7311 21
7312 19
7313 13
7314 12
7315 5
7316 16
7317 21
7318 22
7319 19
7320 14
7321 18
7322 1
7323 16
7324 17
7325 19
7326 7
7327 3
7328 11
7329 21
7330 0
7331 5
7332 24
7333 22
7334 13
7335 22
7336 6
7337 17
7338 21
7339 10
7340 8
7341 1
7342 24
7343 5
7344 21
7345 21
7346 13
7347 10
7348 22
7349 5
7350 17
7351 21
7352 15
7353 19
7354 9
7355 15
7356 3
7357 15
7358 5
7359 11
7360 15
7361 15
7362 4
7363 16
7364 2
7365 23
7366 10
7367 14
7368 10
7369 22
7370 6
7371 14
7372 2
7373 24
7374 3
7375 3
7376 2
7377 6
7378 0
7379 16
7380 8
7381 2
7382 1
7383 21
7384 7
7385 2
7386 11
7387 3
7388 20
7389 11
7390 3
7391 16
7392 21
7393 13
7394 4
7395 22
7396 16
7397 17
7398 16
7399 22
7400 1
7401 6
7402 9
7403 6
7404 15
7405 17
7406 14
7407 1
7408 1
7409 21
7410 7
7411 16
7412 0
7413 4
7414 20
7415 3
7416 8
7417 14
7418 1
7419 10
7420 13
7421 19
7422 12
7423 18
7424 8
7425 19
7426 4
7427 22
7428 7
7429 13
7430 13
7431 2
7432 19
7433 23
7434 23
7435 1
7436 13
7437 9
7438 22
7439 1
7440 22
7441 23
7442 19
7443 12
7444 13
7445 1
7446 16
7447 7
7448 7
7449 2
7450 11
7451 17
7452 5
7453 12
7454 16
7455 24
7456 19
7457 19
7458 13
7459 20
7460 14
7461 12
7462 15
7463 11
7464 7
7465 15
7466 3
7467 4
7468 6
7469 16
7470 8
7471 15
7472 16
7473 5
7474 20
7475 9
7476 10
7477 9
7478 17
7479 5
7480 3
7481 22
7482 10
7483 2
7484 11
7485 11
7486 9
7487 5
7488 18
7489 7
7490 16
7491 22
7492 5
7493 19
7494 13
7495 11
7496 6
7497 15
7498 21
7499 20
7500 20
7501 17
7502 0
7503 9
7504 14
7505 6
7506 19
7507 15
7508 0
7509 17
7510 0
7511 16
7512 10
7513 19
7514 2
7515 10
7516 14
7517 18
7518 19
7519 21
7520 21
7521 2
7522 14
7523 13
7524 20
7525 2
7526 19
7527 13
7528 3
7529 1
7530 6
7531 13
7532 21
7533 18
7534 13
7535 21
7536 1
7537 24
7538 14
7539 19
7540 6
7541 0
7542 23
7543 6
7544 14
7545 24
7546 3
7547 16
7548 0
7549 20
7550 19
7551 10
7552 3
7553 18
7554 22
7555 1
7556 6
7557 9
7558 0
7559 15
7560 10
7561 22
7562 17
7563 18
7564 2
7565 0
7566 6
7567 5
7568 3
7569 0
7570 18
7571 0
7572 10
7573 18
7574 5
7575 12
7576 24
7577 12
7578 19
7579 19
7580 16
7581 22
7582 0
7583 18
7584 17
7585 8
7586 16
7587 15
7588 9
7589 13
7590 21
7591 23
7592 3
7593 7
7594 19
7595 4
7596 21
7597 9
7598 0
7599 19
7600 11
7601 23
7602 11
7603 7
7604 15
7605 18
7606 9
7607 11
7608 21
7609 13
7610 20
7611 20
7612 7
7613 13
7614 19
7615 11
7616 16
7617 9
7618 18
7619 20
7620 23
7621 15
7622 3
7623 20
7624 9
7625 22
7626 3
7627 16
7628 16
7629 19
7630 16
7631 13
7632 18
7633 5
7634 0
7635 17
7636 7
7637 8
7638 20
7639 19
7640 3
7641 21
7642 7
7643 24
7644 24
7645 20
7646 7
7647 5
7648 1
7649 13
7650 22
7651 9
7652 15
7653 17
7654 9
7655 16
7656 5
7657 0
7658 18
7659 14
7660 9
7661 11
7662 24
7663 3
7664 20
7665 20
7666 6
7667 1
7668 6
7669 24
7670 3
7671 4
7672 2
7673 15
7674 6
7675 15
7676 12
7677 22
7678 23
7679 5
7680 8
7681 6
7682 16
7683 18
7684 23
7685 14
7686 7
7687 11
7688 10
7689 11
7690 19
7691 4
7692 9
7693 8
7694 4
7695 7
7696 22
7697 3
7698 23
7699 20
7700 8
7701 15
7702 2
7703 0
7704 10
7705 14
7706 6
7707 24
7708 22
7709 12
7710 5
7711 14
7712 19
7713 2
7714 24
7715 7
7716 20
7717 14
7718 24
7719 20
7720 12
7721 22
7722 0
7723 7
7724 3
7725 0
7726 7
7727 16
7728 12
7729 14
7730 24
7731 1
7732 17
7733 16
7734 8
7735 0
7736 20
7737 12
7738 1
7739 7
7740 12
7741 4
7742 21
7743 1
7744 23
7745 11
7746 16
7747 0
7748 12
7749 2
7750 23
7751 13
7752 12
7753 24
7754 2
7755 5
7756 18
7757 20
7758 10
7759 10
7760 19
7761 12
7762 4
7763 17
7764 10
7765 12
7766 4
7767 7
7768 11
7769 9
7770 14
7771 2
7772 9
7773 7
7774 21
7775 8
7776 11
7777 2
7778 17
7779 15
7780 11
7781 20
7782 20
7783 0
7784 24
7785 20
7786 11
7787 24
7788 7
7789 8
7790 7
7791 4
7792 19
7793 24
7794 0
7795 12
7796 2
7797 6
7798 24
7799 18
7800 2
7801 11
7802 12
7803 15
7804 5
7805 1
7806 15
7807 3
7808 19
7809 23
7810 19
7811 17
7812 4
7813 4
7814 11
7815 17
7816 21
7817 10
7818 16
7819 16
7820 20
7821 5
7822 17
7823 17
7824 11
7825 17
7826 18
7827 5
7828 14
7829 11
7830 13
7831 7
7832 11
7833 15
7834 1
7835 17
7836 18
7837 9
7838 1
7839 23
7840 12
7841 23
7842 16
7843 12
7844 22
7845 18
7846 0
7847 4
7848 9
7849 18
7850 22
7851 13
7852 23
7853 23
7854 16
7855 12
7856 4
7857 16
7858 1
7859 1
7860 6
7861 2
7862 11
7863 11
7864 12
7865 12
7866 11
7867 17
7868 21
7869 22
7870 7
7871 6
7872 4
7873 16
7874 18
7875 1
7876 19
7877 8
7878 18
7879 20
7880 3
7881 9
7882 5
7883 9
7884 10
7885 10
7886 6
7887 8
7888 2
7889 19
7890 9
7891 7
7892 15
7893 0
7894 20
7895 22
7896 16
7897 11
7898 4
7899 7
7900 22
7901 10
7902 6
7903 12
7904 20
7905 13
7906 7
7907 19
7908 19
7909 20
7910 21
7911 10
7912 12
7913 17
7914 13
7915 18
7916 18
7917 7
7918 19
7919 9
7920 13
7921 13
7922 4
7923 8
7924 12
7925 1
7926 1
7927 18
7928 12
7929 10
7930 13
7931 17
7932 10
7933 6
7934 21
7935 5
7936 7
7937 11
7938 4
7939 22
7940 15
7941 24
7942 24
7943 21
7944 5
7945 0
7946 7
7947 21
7948 8
7949 22
7950 3
7951 14
7952 7
7953 10
7954 4
7955 2
7956 20
7957 20
7958 20
7959 2
7960 18
7961 5
7962 21
7963 7
7964 14
7965 12
7966 14
7967 8
7968 17
7969 2
7970 5
7971 13
7972 13
7973 11
7974 3
7975 18
7976 24
7977 0
7978 16
7979 8
7980 10
7981 15
7982 3
7983 2
7984 22
7985 6
7986 14
7987 14
7988 17
7989 13
7990 22
7991 23
7992 16
7993 18
7994 10
7995 14
7996 0
7997 2
7998 19
7999 20
8000 17
8001 24
8002 22
8003 13
8004 8
8005 22
8006 2
8007 10
8008 17
8009 20
8010 10
8011 21
8012 11
8013 24
8014 17
8015 5
8016 5
8017 10
8018 20
8019 11
8020 1
8021 15
8022 7
8023 12
8024 20
8025 6
8026 2
8027 19
8028 21
8029 9
8030 24
8031 5
8032 8
8033 24
8034 3
8035 2
8036 11
8037 21
8038 1
8039 0
8040 19
8041 19
8042 11
8043 0
8044 18
8045 9
8046 18
8047 18
8048 5
8049 1
8050 6
8051 6
8052 0
8053 18
8054 2
8055 15
8056 10
8057 24
8058 10
8059 22
8060 2
8061 13
8062 24
8063 16
8064 22
8065 19
8066 15
8067 14
8068 0
8069 14
8070 21
8071 12
8072 21
8073 17
8074 9
8075 10
8076 14
8077 22
8078 0
8079 15
8080 10
8081 6
8082 24
8083 7
8084 20
8085 10
8086 20
8087 15
8088 13
8089 13
8090 17
8091 10
8092 9
8093 19
8094 1
8095 4
8096 19
8097 13
8098 1
8099 2
8100 5
8101 24
8102 5
8103 19
8104 23
8105 3
8106 9
8107 19
8108 5
8109 17
8110 3
8111 13
8112 6
8113 0
8114 11
8115 13
8116 4
8117 1
8118 16
8119 6
8120 20
8121 10
8122 18
8123 7
8124 20
8125 6
8126 20
8127 13
8128 10
8129 16
8130 6
8131 0
8132 21
8133 21
8134 12
8135 18
8136 7
8137 8
8138 24
8139 15
8140 19
8141 15
8142 19
8143 2
8144 0
8145 4
8146 2
8147 0
8148 0
8149 11
8150 8
8151 16
8152 24
8153 17
8154 15
8155 1
8156 19
8157 17
8158 3
8159 24
8160 7
8161 3
8162 3
8163 23
8164 13
8165 18
8166 24
8167 24
8168 14
8169 8
8170 11
8171 18
8172 8
8173 13
8174 4
8175 13
8176 23
8177 17
8178 17
8179 19
8180 5
8181 7
8182 17
8183 20
8184 11
8185 5
8186 2
8187 12
8188 6
8189 16
8190 22
8191 4
8192 17
8193 11
8194 18
8195 18
8196 8
8197 5
8198 6
8199 15
8200 15
8201 24
8202 19
8203 0
8204 7
8205 16
8206 12
8207 13
8208 12
8209 14
8210 17
8211 3
8212 11
8213 7
8214 16
8215 0
8216 9
8217 4
8218 24
8219 16
8220 11
8221 17
8222 4
8223 22
8224 19
8225 9
8226 22
8227 22
8228 17
8229 17
8230 3
8231 22
8232 18
8233 10
8234 14
8235 19
8236 3
8237 10
8238 20
8239 24
8240 13
8241 4
8242 17
8243 1
8244 8
8245 19
8246 5
8247 5
8248 6
8249 14
8250 8
8251 16
8252 6
8253 1
8254 24
8255 4
8256 15
8257 15
8258 1
8259 16
8260 19
8261 2
8262 1
8263 18
8264 9
8265 9
8266 19
8267 2
8268 5
8269 2
8270 22
8271 22
8272 4
8273 24
8274 10
8275 10
8276 7
8277 12
8278 13
8279 14
8280 18
8281 9
8282 2
8283 6
8284 0
8285 15
8286 3
8287 6
8288 4
8289 19
8290 3
8291 7
8292 21
8293 19
8294 0
8295 14
8296 8
8297 22
8298 18
8299 20
8300 8
8301 16
8302 3
8303 4
8304 17
8305 15
8306 2
8307 2
8308 16
8309 11
8310 7
8311 23
8312 2
8313 12
8314 1
8315 19
8316 14
8317 7
8318 9
8319 6
8320 3
8321 20
8322 23
8323 19
8324 10
8325 13
8326 7
8327 14
8328 11
8329 18
8330 20
8331 14
8332 6
8333 8
8334 4
8335 21
8336 12
8337 17
8338 12
8339 10
8340 5
8341 18
8342 20
8343 11
8344 9
8345 9
8346 8
8347 1
8348 5
8349 10
8350 7
8351 5
8352 9
8353 21
8354 15
8355 10
8356 13
8357 10
8358 6
8359 14
8360 15
8361 20
8362 19
8363 10
8364 13
8365 19
8366 18
8367 16
8368 5
8369 19
8370 0
8371 23
8372 8
8373 8
8374 21
8375 3
8376 2
8377 22
8378 24
8379 2
8380 13
8381 2
8382 10
8383 20
8384 2
8385 1
8386 3
8387 15
8388 19
8389 2
8390 19
8391 18
8392 24
8393 15
8394 8
8395 22
8396 2
8397 8
8398 16
8399 19
8400 5
8401 23
8402 18
8403 6
8404 7
8405 12
8406 15
8407 23
8408 17
8409 4
8410 0
8411 21
8412 12
8413 20
8414 19
8415 7
8416 9
8417 19
8418 18
8419 22
8420 13
8421 23
8422 12
8423 15
8424 14
8425 5
8426 21
8427 3
8428 7
8429 17
8430 6
8431 19
8432 7
8433 11
8434 23
8435 12
8436 0
8437 8
8438 4
8439 20
8440 23
8441 24
8442 7
8443 15
8444 14
8445 2
8446 11
8447 11
8448 19
8449 23
8450 17
8451 8
8452 3
8453 10
8454 2
8455 18
8456 11
8457 4
8458 0
8459 10
8460 21
8461 15
8462 4
8463 18
8464 7
8465 18
8466 8
8467 21
8468 11
8469 16
8470 6
8471 8
8472 15
8473 18
8474 18
8475 13
8476 10
8477 11
8478 17
8479 19
8480 11
8481 0
8482 3
8483 4
8484 21
8485 3
8486 7
8487 1
8488 0
8489 12
8490 20
8491 22
8492 2
8493 9
8494 24
8495 16
8496 10
8497 15
8498 14
8499 22
8500 21
8501 2
8502 5
8503 4
8504 5
8505 23
8506 0
8507 18
8508 16
8509 15
8510 16
8511 6
8512 5
8513 19
8514 11
8515 10
8516 18
8517 22
8518 10
8519 13
8520 2
8521 22
8522 13
8523 9
8524 11
8525 13
8526 9
8527 5
8528 21
8529 12
8530 19
8531 12
8532 10
8533 19
8534 1
8535 18
8536 10
8537 16
8538 17
8539 23
8540 17
8541 20
8542 3
8543 11
8544 7
8545 16
8546 9
8547 2
8548 9
8549 3
8550 12
8551 13
8552 24
8553 2
8554 20
8555 21
8556 6
8557 5
8558 6
8559 18
8560 10
8561 7
8562 24
8563 18
8564 6
8565 11
8566 4
8567 18
8568 5
8569 2
8570 12
8571 14
8572 12
8573 10
8574 8
8575 8
8576 6
8577 1
8578 16
8579 2
8580 5
8581 5
8582 3
8583 22
8584 18
8585 19
8586 11
8587 20
8588 6
8589 1
8590 14
8591 9
8592 10
8593 16
8594 20
8595 18
8596 5
8597 5
8598 12
8599 0
8600 5
8601 8
8602 21
8603 11
8604 21
8605 0
8606 12
8607 16
8608 20
8609 3
8610 2
8611 18
8612 22
8613 21
8614 16
8615 18
8616 5
8617 6
8618 5
8619 22
8620 18
8621 22
8622 7
8623 11
8624 11
8625 8
8626 15
8627 4
8628 8
8629 0
8630 2
8631 9
8632 3
8633 5
8634 2
8635 20
8636 3
8637 9
8638 1
8639 5
8640 21
8641 13
8642 17
8643 13
8644 6
8645 17
8646 6
8647 20
8648 4
8649 12
8650 5
8651 6
8652 16
8653 10
8654 9
8655 10
8656 4
8657 22
8658 18
8659 13
8660 8
8661 9
8662 22
8663 13
8664 7
8665 22
8666 20
8667 6
8668 13
8669 8
8670 10
8671 1
8672 12
8673 2
8674 13
8675 0
8676 4
8677 22
8678 24
8679 7
8680 4
8681 15
8682 1
8683 11
8684 1
8685 11
8686 0
8687 1
8688 23
8689 8
8690 7
8691 4
8692 18
8693 5
8694 14
8695 5
8696 19
8697 8
8698 3
8699 16
8700 24
8701 23
8702 12
8703 9
8704 23
8705 8
8706 15
8707 2
8708 14
8709 7
8710 12
8711 7
8712 18
8713 6
8714 20
8715 3
8716 11
8717 3
8718 15
8719 19
8720 17
8721 7
8722 15
8723 24
8724 6
8725 10
8726 20
8727 4
8728 10
8729 9
8730 6
8731 0
8732 13
8733 4
8734 12
8735 12
8736 19
8737 7
8738 6
8739 15
8740 21
8741 3
8742 1
8743 21
8744 0
8745 14
8746 22
8747 4
8748 16
8749 2
8750 21
8751 8
8752 11
8753 11
8754 4
8755 3
8756 19
8757 2
8758 18
8759 15
8760 14
8761 5
8762 10
8763 23
8764 6
8765 18
8766 21
8767 21
8768 23
8769 6
8770 3
8771 12
8772 7
8773 0
8774 21
8775 6
8776 17
8777 2
8778 18
8779 16
8780 23
8781 21
8782 10
8783 11
8784 8
8785 19
8786 15
8787 16
8788 20
8789 3
8790 7
8791 16
8792 2
8793 23
8794 21
8795 14
8796 15
8797 10
8798 3
8799 6
8800 1
8801 21
8802 7
8803 14
8804 5
8805 18
8806 17
8807 17
8808 3
8809 18
8810 2
8811 22
8812 13
8813 6
8814 5
8815 19
8816 7
8817 21
8818 2
8819 3
8820 12
8821 12
8822 23
8823 10
8824 2
8825 2
8826 1
8827 12
8828 14
8829 3
8830 6
8831 21
8832 2
8833 15
8834 20
8835 20
8836 22
8837 19
8838 6
8839 15
8840 1
8841 16
8842 10
8843 11
8844 13
8845 7
8846 17
8847 21
8848 23
8849 6
8850 14
8851 5
8852 13
8853 15
8854 13
8855 13
8856 2
8857 20
8858 7
8859 24
8860 18
8861 15
8862 22
8863 17
8864 22
8865 17
8866 14
8867 2
8868 7
8869 21
8870 21
8871 17
8872 16
8873 6
8874 2
8875 19
8876 14
8877 16
8878 9
8879 23
8880 4
8881 16
8882 6
8883 12
8884 21
8885 7
8886 17
8887 4
8888 22
8889 9
8890 24
8891 18
8892 2
8893 11
8894 14
8895 15
8896 23
8897 19
8898 4
8899 9
8900 18
8901 6
8902 2
8903 2
8904 9
8905 3
8906 0
8907 20
8908 17
8909 5
8910 18
8911 8
8912 22
8913 13
8914 10
8915 20
8916 10
8917 11
8918 1
8919 14
8920 2
8921 14
8922 7
8923 0
8924 21
8925 15
8926 14
8927 0
8928 16
8929 16
8930 3
8931 17
8932 21
8933 5
8934 12
8935 15
8936 19
8937 7
8938 22
8939 0
8940 6
8941 19
8942 2
8943 2
8944 0
8945 22
8946 19
8947 4
8948 24
8949 4
8950 16
8951 21
8952 1
8953 17
8954 15
8955 10
8956 20
8957 24
8958 11
8959 14
8960 15
8961 0
8962 7
8963 3
8964 1
8965 0
8966 13
8967 20
8968 19
8969 13
8970 0
8971 15
8972 22
8973 8
8974 5
8975 19
8976 0
8977 21
8978 23
8979 19
8980 22
8981 16
8982 8
8983 9
8984 21
8985 15
8986 3
8987 20
8988 11
8989 13
8990 19
8991 20
8992 15
8993 20
8994 1
8995 5
8996 10
8997 20
8998 20
8999 7
9000 12
9001 9
9002 21
9003 7
9004 1
9005 22
9006 0
9007 18
9008 0
9009 5
9010 16
9011 4
9012 9
9013 21
9014 22
9015 8
9016 13
9017 13
9018 24
9019 9
9020 9
9021 18
9022 20
9023 15
9024 6
9025 16
9026 23
9027 13
9028 3
9029 23
9030 12
9031 5
9032 17
9033 0
9034 17
9035 10
9036 12
9037 3
9038 15
9039 5
9040 2
9041 18
9042 0
9043 10
9044 22
9045 18
9046 16
9047 13
9048 18
9049 2
9050 13
9051 17
9052 0
9053 1
9054 19
9055 16
9056 9
9057 19
9058 21
9059 16
9060 24
9061 21
9062 19
9063 6
9064 8
9065 4
9066 13
9067 6
9068 15
9069 23
9070 19
9071 23
9072 24
9073 1
9074 4
9075 22
9076 9
9077 9
9078 9
9079 19
9080 1
9081 3
9082 1
9083 15
9084 14
9085 20
9086 24
9087 16
9088 20
9089 16
9090 24
9091 21
9092 2
9093 10
9094 6
9095 1
9096 9
9097 0
9098 10
9099 18
9100 20
9101 23
9102 1
9103 8
9104 8
9105 4
9106 2
9107 22
9108 21
9109 20
9110 5
9111 15
9112 15
9113 7
9114 18
9115 22
9116 16
9117 20
9118 22
9119 9
9120 4
9121 3
9122 15
9123 12
9124 15
9125 5
9126 24
9127 1
9128 9
9129 17
9130 10
9131 15
9132 15
9133 23
9134 3
9135 21
9136 18
9137 21
9138 22
9139 7
9140 16
9141 11
9142 15
9143 24
9144 17
9145 7
9146 1
9147 17
9148 2
9149 19
9150 13
9151 1
9152 4
9153 22
9154 17
9155 21
9156 7
9157 2
9158 8
9159 4
9160 19
9161 20
9162 19
9163 11
9164 14
9165 18
9166 8
9167 19
9168 8
9169 6
9170 7
9171 6
9172 10
9173 10
9174 18
9175 13
9176 23
9177 18
9178 24
9179 20
9180 1
9181 22
9182 10
9183 1
9184 1
9185 15
9186 2
9187 6
9188 10
9189 12
9190 14
9191 19
9192 18
9193 15
9194 10
9195 24
9196 17
9197 17
9198 4
9199 12
9200 11
9201 7
9202 24
9203 9
9204 3
9205 0
9206 3
9207 22
9208 15
9209 23
9210 16
9211 4
9212 22
9213 0
9214 18
9215 21
9216 16
9217 10
9218 13
9219 2
9220 1
9221 14
9222 16
9223 11
9224 1
9225 1
9226 22
9227 5
9228 0
9229 14
9230 11
9231 6
9232 3
9233 10
9234 6
9235 18
9236 22
9237 22
9238 8
9239 11
9240 8
9241 3
9242 14
9243 21
9244 7
9245 21
9246 9
9247 6
9248 0
9249 22
9250 9
9251 21
9252 3
9253 17
9254 17
9255 2
9256 0
9257 7
9258 7
9259 2
9260 5
9261 8
9262 5
9263 3
9264 17
9265 11
9266 3
9267 13
9268 3
9269 13
9270 2
9271 11
9272 21
9273 1
9274 8
9275 10
9276 11
9277 12
9278 23
9279 20
9280 4
9281 12
9282 22
9283 0
9284 9
9285 19
9286 15
9287 18
9288 13
9289 3
9290 9
9291 0
9292 7
9293 6
9294 21
9295 3
9296 4
9297 16
9298 14
9299 8
9300 4
9301 11
9302 12
9303 19
9304 16
9305 8
9306 16
9307 23
9308 14
9309 4
9310 1
9311 23
9312 6
9313 9
9314 1
9315 13
9316 22
9317 2
9318 13
9319 22
9320 5
9321 10
9322 6
9323 10
9324 3
9325 0
9326 11
9327 13
9328 14
9329 16
9330 0
9331 19
9332 20
9333 12
9334 12
9335 0
9336 13
9337 3
9338 17
9339 6
9340 24
9341 2
9342 18
9343 6
9344 21
9345 13
9346 3
9347 12
9348 8
9349 4
9350 17
9351 6
9352 16
9353 6
9354 6
9355 24
9356 5
9357 23
9358 10
9359 18
9360 6
9361 0
9362 23
9363 17
9364 19
9365 22
9366 9
9367 13
9368 11
9369 6
9370 21
9371 9
9372 6
9373 9
9374 16
9375 21
9376 4
9377 6
9378 24
9379 9
9380 24
9381 21
9382 16
9383 5
9384 24
9385 15
9386 2
9387 15
9388 5
9389 19
9390 15
9391 7
9392 22
9393 15
9394 21
9395 17
9396 9
9397 11
9398 21
9399 16
9400 19
9401 18
9402 20
9403 21
9404 2
9405 13
9406 7
9407 12
9408 4
9409 12
9410 6
9411 12
9412 0
9413 16
9414 17
9415 11
9416 7
9417 9
9418 9
9419 7
9420 2
9421 8
9422 21
9423 19
9424 23
9425 8
9426 8
9427 13
9428 4
9429 9
9430 8
9431 14
9432 13
9433 22
9434 11
9435 1
9436 13
9437 19
9438 2
9439 14
9440 3
9441 17
9442 10
9443 13
9444 18
9445 21
9446 17
9447 22
9448 17
9449 5
9450 15
9451 11
9452 14
9453 21
9454 22
9455 4
9456 5
9457 5
9458 24
9459 12
9460 0
9461 14
9462 11
9463 18
9464 4
9465 21
9466 12
9467 23
9468 8
9469 17
9470 17
9471 4
9472 10
9473 21
9474 24
9475 14
9476 17
9477 16
9478 3
9479 15
9480 16
9481 23
9482 4
9483 19
9484 22
9485 9
9486 16
9487 3
9488 7
9489 2
9490 4
9491 13
9492 12
9493 15
9494 6
9495 15
9496 12
9497 14
9498 10
9499 4
9500 12
9501 5
9502 13
9503 0
9504 6
9505 10
9506 20
9507 10
9508 17
9509 0
9510 1
9511 22
9512 1
9513 15
9514 8
9515 22
9516 22
9517 15
9518 23
9519 23
9520 13
9521 21
9522 5
9523 9
9524 4
9525 12
9526 10
9527 3
9528 10
9529 21
9530 11
9531 24
9532 15
9533 6
9534 16
9535 18
9536 23
9537 24
9538 3
9539 7
9540 6
9541 11
9542 0
9543 14
9544 1
9545 0
9546 15
9547 18
9548 4
9549 2
9550 5
9551 2
9552 9
9553 22
9554 12
9555 0
9556 5
9557 6
9558 24
9559 15
9560 14
9561 11
9562 4
9563 18
9564 1
9565 17
9566 16
9567 21
9568 21
9569 6
9570 18
9571 4
9572 23
9573 2
9574 6
9575 2
9576 12
9577 6
9578 13
9579 2
9580 18
9581 4
9582 9
9583 0
9584 5
9585 0
9586 8
9587 20
9588 15
9589 24
9590 19
9591 8
9592 7
9593 4
9594 23
9595 13
9596 11
9597 16
9598 24
9599 18
9600 16
9601 8
9602 0
9603 1
9604 17
9605 17
9606 4
9607 11
9608 18
9609 6
9610 23
9611 16
9612 24
9613 10
9614 19
9615 9
9616 17
9617 4
9618 22
9619 19
9620 2
9621 6
9622 7
9623 18
9624 10
9625 4
9626 22
9627 18
9628 1
9629 18
9630 14
9631 10
9632 10
9633 9
9634 6
9635 1
9636 12
9637 19
9638 0
9639 9
9640 23
9641 21
9642 22
9643 6
9644 5
9645 13
9646 8
9647 3
9648 2
9649 5
9650 21
9651 17
9652 4
9653 24
9654 15
9655 21
9656 0
9657 4
9658 6
9659 14
9660 3
9661 6
9662 5
9663 11
9664 12
9665 23
9666 23
9667 15
9668 2
9669 18
9670 5
9671 12
9672 2
9673 19
9674 12
9675 11
9676 1
9677 1
9678 7
9679 17
9680 13
9681 6
9682 3
9683 12
9684 22
9685 7
9686 9
9687 16
9688 7
9689 2
9690 3
9691 14
9692 19
9693 8
9694 13
9695 13
9696 15
9697 0
9698 21
9699 1
9700 5
9701 13
9702 11
9703 1
9704 23
9705 9
9706 12
9707 3
9708 13
9709 19
9710 23
9711 5
9712 23
9713 0
9714 21
9715 3
9716 23
9717 7
9718 20
9719 23
9720 20
9721 13
9722 18
9723 11
9724 22
9725 4
9726 11
9727 18
9728 20
9729 18
9730 7
9731 11
9732 17
9733 0
9734 9
9735 10
9736 23
9737 17
9738 20
9739 23
9740 8
9741 17
9742 12
9743 8
9744 18
9745 22
9746 4
9747 15
9748 7
9749 8
9750 11
9751 23
9752 21
9753 23
9754 4
9755 9
9756 16
9757 13
9758 24
9759 19
9760 6
9761 19
9762 12
9763 12
9764 19
9765 1
9766 18
9767 19
9768 22
9769 1
9770 17
9771 12
9772 3
9773 1
9774 22
9775 13
9776 7
9777 7
9778 20
9779 16
9780 15
9781 20
9782 19
9783 22
9784 4
9785 14
9786 2
9787 22
9788 11
9789 18
9790 15
9791 14
9792 19
9793 24
9794 10
9795 22
9796 2
9797 1
9798 0
9799 20
9800 3
9801 21
9802 1
9803 2
9804 16
9805 14
9806 15
9807 0
9808 24
9809 22
9810 9
9811 6
9812 15
9813 3
9814 7
9815 19
9816 24
9817 6
9818 10
9819 18
9820 18
9821 6
9822 0
9823 17
9824 10
9825 22
9826 9
9827 23
9828 20
9829 8
9830 20
9831 12
9832 0
9833 19
9834 18
9835 18
9836 18
9837 9
9838 12
9839 19
9840 1
9841 16
9842 0
9843 3
9844 18
9845 12
9846 5
9847 7
9848 9
9849 3
9850 9
9851 2
9852 22
9853 9
9854 4
9855 15
9856 12
9857 12
9858 0
9859 2
9860 15
9861 18
9862 10
9863 2
9864 1
9865 1
9866 17
9867 13
9868 24
9869 22
9870 19
9871 20
9872 18
9873 11
9874 13
9875 5
9876 19
9877 4
9878 4
9879 4
9880 7
9881 1
9882 20
9883 11
9884 17
9885 21
9886 8
9887 10
9888 2
9889 19
9890 17
9891 22
9892 5
9893 9
9894 3
9895 22
9896 20
9897 19
9898 12
9899 23
9900 4
9901 0
9902 3
9903 8
9904 19
9905 1
9906 0
9907 23
9908 7
9909 8
9910 23
9911 5
9912 21
9913 5
9914 14
9915 7
9916 2
9917 9
9918 2
9919 4
9920 5
9921 23
9922 20
9923 10
9924 20
9925 12
9926 8
9927 21
9928 14
9929 4
9930 6
9931 5
9932 12
9933 21
9934 15
9935 18
9936 21
9937 0
9938 2
9939 3
9940 16
9941 7
9942 20
9943 23
9944 4
9945 7
9946 24
9947 19
9948 23
9949 3
9950 20
9951 15
9952 13
9953 11
9954 5
9955 6
9956 8
9957 20
9958 24
9959 13
9960 23
9961 8
9962 17
9963 0
9964 12
9965 24
9966 9
9967 8
9968 17
9969 17
9970 16
9971 15
9972 1
9973 6
9974 9
9975 5
9976 1
9977 15
9978 6
9979 7
9980 23
9981 19
9982 5
9983 24
9984 4
9985 6
9986 16
9987 3
9988 7
9989 19
9990 14
9991 8
9992 12
9993 20
9994 15
9995 7
9996 1
9997 7
9998 4
9999 18
10000 13
10001 15
10002 14
10003 4
10004 1
10005 7
10006 19
10007 4
10008 24
10009 4
10010 24
10011 14
10012 10
10013 8
10014 3
10015 5
10016 5
10017 24
10018 15
10019 18
10020 18
10021 12
10022 20
10023 14
10024 2
10025 14
10026 3
10027 3
10028 14
10029 20
10030 9
10031 21
10032 19
10033 0
10034 10
10035 23
10036 1
10037 3
10038 16
10039 3
10040 14
10041 21
10042 24
10043 8
10044 15
10045 20
10046 15
10047 9
10048 0
10049 10
10050 20
10051 7
10052 0
10053 20
10054 24
10055 22
10056 6
10057 1
10058 20
10059 24
10060 17
10061 21
10062 19
10063 17
10064 18
10065 12
10066 0
10067 18
10068 4
10069 6
10070 24
10071 5
10072 15
10073 3
10074 5
10075 7
10076 19
10077 2
10078 7
10079 20
10080 14
10081 6
10082 20
10083 8
10084 9
10085 23
10086 7
10087 10
10088 9
10089 7
10090 11
10091 0
10092 23
10093 5
10094 13
10095 18
10096 15
10097 13
10098 13
10099 0
10100 21
10101 24
10102 18
10103 19
10104 15
10105 18
10106 16
10107 23
10108 5
10109 11
10110 12
10111 0
10112 4
10113 23
10114 2
10115 19
10116 14
10117 10
10118 0
10119 15
10120 22
10121 19
10122 10
10123 12
10124 15
10125 3
10126 16
10127 18
10128 1
10129 4
10130 9
10131 22
10132 9
10133 1
10134 9
10135 11
10136 7
10137 24
10138 23
10139 20
10140 1
10141 2
10142 5
10143 2
10144 19
10145 3
10146 1
10147 16
10148 4
10149 23
10150 22
10151 24
10152 14
10153 6
10154 9
10155 6
10156 23
10157 5
10158 22
10159 9
10160 5
10161 21
10162 0
10163 5
10164 16
10165 16
10166 10
10167 6
10168 20
10169 6
10170 5
10171 13
10172 15
10173 18
10174 18
10175 7
10176 3
10177 4
10178 0
10179 16
10180 6
10181 8
10182 10
10183 17
10184 10
10185 23
10186 7
10187 4
10188 19
10189 12
10190 8
10191 4
10192 14
10193 19
10194 20
10195 1
10196 5
10197 19
10198 3
10199 4
10200 11
10201 6
10202 9
10203 16
10204 7
10205 14
10206 14
10207 7
10208 1
10209 22
10210 8
10211 14
10212 12
10213 20
10214 3
10215 23
10216 15
10217 5
10218 18
10219 23
10220 23
10221 5
10222 19
10223 7
10224 20
10225 22
10226 6
10227 23
10228 23
10229 13
10230 9
10231 0
10232 7
10233 5
10234 1
10235 13
10236 3
10237 9
10238 12
10239 17
10240 23
10241 10
10242 19
10243 2
10244 3
10245 3
10246 11
10247 16
10248 3
10249 0
10250 5
10251 8
10252 6
10253 23
10254 0
10255 1
10256 17
10257 15
10258 18
10259 0
10260 13
10261 15
10262 15
10263 1
10264 8
10265 20
10266 7
10267 3
10268 4
10269 22
10270 9
10271 12
10272 9
10273 8
10274 11
10275 18
10276 10
10277 12
10278 16
10279 7
10280 19
10281 4
10282 23
10283 14
10284 9
10285 14
10286 10
10287 18
10288 11
10289 19
10290 8
10291 8
10292 9
10293 22
10294 17
10295 4
10296 22
10297 2
10298 9
10299 21
10300 0
10301 0
10302 16
10303 19
10304 11
10305 2
10306 21
10307 23
10308 24
10309 6
10310 9
10311 18
10312 3
10313 14
10314 22
10315 16
10316 20
10317 1
10318 23
10319 4
10320 2
10321 24
10322 8
10323 24
10324 0
10325 11
10326 5
10327 2
10328 21
10329 9
10330 5
10331 6
10332 13
10333 12
10334 8
10335 12
10336 22
10337 11
10338 1
10339 13
10340 1
10341 17
10342 19
10343 5
10344 19
10345 22
10346 10
10347 10
10348 1
10349 18
10350 22
10351 13
10352 21
10353 8
10354 8
10355 2
10356 2
10357 20
10358 2
10359 8
10360 3
10361 17
10362 0
10363 6
10364 14
10365 21
10366 5
10367 19
10368 0
10369 24
10370 22
10371 17
10372 17
10373 13
10374 19
10375 23
10376 7
10377 0
10378 11
10379 5
10380 10
10381 1
10382 11
10383 24
10384 3
10385 2
10386 8
10387 23
10388 7
10389 18
10390 19
10391 9
10392 14
10393 0
10394 14
10395 20
10396 16
10397 20
10398 10
10399 2
10400 24
10401 10
10402 16
10403 10
10404 3
10405 10
10406 14
10407 2
10408 6
10409 24
10410 7
10411 20
10412 6
10413 3
10414 24
10415 5
10416 9
10417 2
10418 0
10419 3
10420 22
10421 7
10422 22
10423 8
10424 17
10425 24
10426 3
10427 13
10428 10
10429 21
10430 12
10431 4
10432 9
10433 7
10434 21
10435 22
10436 1
10437 0
10438 0
10439 10
10440 6
10441 22
10442 3
10443 3
10444 7
10445 18
10446 9
10447 13
10448 2
10449 17
10450 16
10451 15
10452 7
10453 14
10454 12
10455 11
10456 5
10457 18
10458 24
10459 21
10460 14
10461 14
10462 18
10463 0
10464 19
10465 19
10466 22
10467 9
10468 4
10469 0
10470 15
10471 13
10472 17
10473 0
10474 8
10475 17
10476 0
10477 19
10478 15
10479 13
10480 17
10481 9
10482 19
10483 13
10484 23
10485 24
10486 10
10487 14
10488 3
10489 17
10490 17
10491 23
10492 17
10493 15
10494 15
10495 1
10496 19
10497 4
10498 8
10499 20
10500 20
10501 13
10502 11
10503 14
10504 12
10505 0
10506 17
10507 21
10508 7
10509 5
10510 6
10511 8
10512 20
10513 9
10514 15
10515 8
10516 5
10517 16
10518 5
10519 22
10520 18
10521 9
10522 20
10523 14
10524 7
10525 9
10526 24
10527 16
10528 6
10529 15
10530 15
10531 20
10532 19
10533 14
10534 0
10535 1
10536 14
10537 14
10538 20
10539 16
10540 21
10541 23
10542 14
10543 21
10544 8
10545 15
10546 17
10547 21
10548 23
10549 2
10550 0
10551 12
10552 4
10553 0
10554 22
10555 24
10556 4
10557 13
10558 8
10559 14
10560 12
10561 9
10562 10
10563 4
10564 23
10565 1
10566 20
10567 9
10568 19
10569 16
10570 19
10571 19
10572 1
10573 1
10574 18
10575 20
10576 10
10577 2
10578 22
10579 23
10580 10
10581 7
10582 19
10583 7
10584 11
10585 15
10586 2
10587 20
10588 5
10589 13
10590 18
10591 19
10592 15
10593 5
10594 19
10595 18
10596 21
10597 15
10598 10
10599 21
10600 21
10601 11
10602 11
10603 7
10604 0
10605 12
10606 12
10607 14
10608 5
10609 1
10610 20
10611 8
10612 13
10613 20
10614 19
10615 2
10616 8
10617 16
10618 20
10619 13
10620 1
10621 17
10622 1
10623 14
10624 8
10625 4
10626 8
10627 14
10628 20
10629 15
10630 9
10631 5
10632 2
10633 13
10634 1
10635 18
10636 5
10637 10
10638 12
10639 7
10640 15
10641 11
10642 15
10643 11
10644 18
10645 6
10646 5
10647 8
10648 24
10649 19
10650 7
10651 16
10652 0
10653 8
10654 10
10655 11
10656 0
10657 8
10658 21
10659 22
10660 11
10661 9
10662 20
10663 11
10664 0
10665 15
10666 1
10667 16
10668 24
10669 22
10670 7
10671 8
10672 20
10673 10
10674 21
10675 22
10676 9
10677 15
10678 22
10679 1
10680 8
10681 16
10682 17
10683 22
10684 7
10685 8
10686 7
10687 14
10688 20
10689 1
10690 10
10691 9
10692 6
10693 5
10694 12
10695 22
10696 16
10697 24
10698 17
10699 22
10700 15
10701 1
10702 19
10703 0
10704 22
10705 6
10706 2
10707 9
10708 10
10709 23
10710 23
10711 3
10712 1
10713 19
10714 14
10715 8
10716 13
10717 9
10718 5
10719 23
10720 8
10721 8
10722 21
10723 2
10724 15
10725 3
10726 11
10727 9
10728 1
10729 22
10730 15
10731 17
10732 23
10733 9
10734 5
10735 0
10736 14
10737 21
10738 5
10739 1
10740 19
10741 6
10742 16
10743 0
10744 21
10745 3
10746 6
10747 17
10748 20
10749 6
10750 19
10751 4
10752 11
10753 22
10754 4
10755 10
10756 16
10757 0
10758 13
10759 22
10760 10
10761 8
10762 11
10763 17
10764 19
10765 16
10766 9
10767 21
10768 1
10769 19
10770 0
10771 17
10772 15
10773 7
10774 19
10775 15
10776 16
10777 1
10778 14
10779 22
10780 0
10781 5
10782 1
10783 13
10784 0
10785 7
10786 15
10787 24
10788 3
10789 7
10790 2
10791 0
10792 2
10793 24
10794 19
10795 23
10796 0
10797 5
10798 20
10799 23
10800 24
10801 8
10802 6
10803 9
10804 21
10805 17
10806 10
10807 5
10808 19
10809 19
10810 21
10811 23
10812 19
10813 8
10814 12
10815 6
10816 14
10817 8
10818 21
10819 4
10820 13
10821 23
10822 1
10823 19
10824 18
10825 17
10826 16
10827 19
10828 8
10829 1
10830 20
10831 24
10832 23
10833 16
10834 3
10835 15
10836 6
10837 3
10838 9
10839 1
10840 14
10841 9
10842 8
10843 11
10844 14
10845 3
10846 22
10847 5
10848 1
10849 6
10850 15
10851 0
10852 24
10853 21
10854 2
10855 1
10856 14
10857 8
10858 24
10859 9
10860 1
10861 19
10862 3
10863 9
10864 20
10865 17
10866 7
10867 17
10868 21
10869 1
10870 3
10871 14
10872 1
10873 20
10874 19
10875 21
10876 18
10877 15
10878 0
10879 5
10880 24
10881 20
10882 16
10883 17
10884 19
10885 11
10886 4
10887 12
10888 7
10889 15
10890 15
10891 3
10892 7
10893 24
10894 13
10895 14
10896 18
10897 4
10898 16
10899 17
10900 15
10901 18
10902 6
10903 1
10904 12
10905 12
10906 6
10907 4
10908 12
10909 15
10910 8
10911 1
10912 21
10913 8
10914 6
10915 16
10916 15
10917 17
10918 3
10919 18
10920 16
10921 20
10922 24
10923 0
10924 22
10925 18
10926 14
10927 0
10928 12
10929 15
10930 1
10931 24
10932 13
10933 18
10934 19
10935 16
10936 5
10937 19
10938 5
10939 15
10940 13
10941 17
10942 16
10943 4
10944 20
10945 0
10946 15
10947 2
10948 13
10949 2
10950 15
10951 21
10952 1
10953 0
10954 15
10955 8
10956 2
10957 0
10958 5
10959 8
10960 17
10961 19
10962 6
10963 1
10964 14
10965 11
10966 17
10967 20
10968 14
10969 9
10970 8
10971 10
10972 7
10973 12
10974 17
10975 4
10976 9
10977 6
10978 8
10979 0
10980 14
10981 3
10982 19
10983 1
10984 6
10985 6
10986 19
10987 13
10988 11
10989 0
10990 6
10991 11
10992 20
10993 17
10994 1
10995 14
10996 19
10997 13
10998 6
10999 11
11000 24
11001 15
11002 8
11003 9
11004 17
11005 2
11006 14
11007 1
11008 6
11009 24
11010 22
11011 15
11012 12
11013 18
11014 8
11015 5
11016 1
11017 19
11018 24
11019 21
11020 0
11021 24
11022 23
11023 11
11024 8
11025 11
11026 18
11027 20
11028 24
11029 22
11030 24
11031 0
11032 5
11033 4
11034 15
11035 13
11036 20
11037 15
11038 0
11039 2
11040 2
11041 3
11042 14
11043 13
11044 1
11045 4
11046 19
11047 20
11048 23
11049 7
11050 16
11051 0
11052 14
11053 1
11054 7
11055 4
11056 12
11057 8
11058 24
11059 15
11060 13
11061 15
11062 17
11063 15
11064 11
11065 10
11066 13
11067 5
11068 11
11069 17
11070 4
11071 16
11072 20
11073 12
11074 9
11075 5
11076 1
11077 21
11078 8
11079 14
11080 22
11081 2
11082 19
11083 11
11084 13
11085 21
11086 7
11087 16
11088 10
11089 9
11090 17
11091 20
11092 16
11093 22
11094 11
11095 15
11096 6
11097 0
11098 4
11099 13
11100 6
11101 9
11102 1
11103 15
11104 23
11105 18
11106 19
11107 6
11108 21
11109 15
11110 15
11111 6
11112 9
11113 13
11114 3
11115 13
11116 19
11117 0
11118 13
11119 22
11120 15
11121 23
11122 13
11123 1
11124 3
11125 10
11126 4
11127 24
11128 20
11129 20
11130 6
11131 23
11132 19
11133 18
11134 19
11135 1
11136 17
11137 20
11138 12
11139 18
11140 9
11141 13
11142 19
11143 21
11144 19
11145 12
11146 6
11147 13
11148 4
11149 7
11150 12
11151 3
11152 7
11153 2
11154 13
11155 8
11156 23
11157 3
11158 16
11159 0
11160 22
11161 7
11162 0
11163 2
11164 13
11165 9
11166 0
11167 21
11168 7
11169 3
11170 17
11171 16
11172 19
11173 9
11174 20
11175 4
11176 21
11177 0
11178 17
11179 9
11180 22
11181 6
11182 8
11183 8
11184 9
11185 23
11186 16
11187 5
11188 9
11189 15
11190 1
11191 0
11192 12
11193 4
11194 0
11195 6
11196 18
11197 8
11198 3
11199 15
11200 10
11201 1
11202 13
11203 13
